<?xml version="1.0" encoding="UTF-8" standalone="no"?>
<!DOCTYPE svg PUBLIC "-//W3C//DTD SVG 1.1//EN" "http://www.w3.org/Graphics/SVG/1.1/DTD/svg11.dtd">
<svg width="784px" height="528px" version="1.1" xmlns="http://www.w3.org/2000/svg" xmlns:xlink="http://www.w3.org/1999/xlink" xml:space="preserve" xmlns:serif="http://www.serif.com/" style="fill-rule:evenodd;clip-rule:evenodd;stroke-linecap:round;stroke-linejoin:round;stroke-miterlimit:1.5;">
    <path d="M335.965,124.682L343.921,129.783L217.342,327.186L224.729,331.923L206.077,336L202,317.349L209.387,322.085L335.965,124.682Z" style="fill:rgb(200,230,201);"/>
    <path d="M440.572,130.055L448.497,124.908L576.558,322.105L583.917,317.325L579.948,336L561.273,332.031L568.632,327.251L440.572,130.055Z" style="fill:rgb(255,205,210);"/>
    <g>
        <circle cx="751" cy="272" r="16" style="fill:rgb(144,202,249);stroke:black;stroke-width:1px;"/>
        <circle cx="704" cy="272" r="16" style="fill:rgb(144,202,249);stroke:black;stroke-width:1px;"/>
        <circle cx="656" cy="272" r="16" style="fill:rgb(144,202,249);stroke:black;stroke-width:1px;"/>
        <circle cx="608" cy="272" r="16" style="fill:rgb(144,202,249);stroke:black;stroke-width:1px;"/>
        <circle cx="560" cy="272" r="16" style="fill:rgb(144,202,249);stroke:black;stroke-width:1px;"/>
        <g>
            <circle cx="512" cy="272" r="16" style="fill:rgb(144,202,249);stroke:black;stroke-width:1px;"/>
            <text x="505.94px" y="279.158px" style="font-family:'Helvetica';font-size:20px;">Z</text>
        </g>
        <g>
            <circle cx="464" cy="272" r="16" style="fill:rgb(144,202,249);stroke:black;stroke-width:1px;"/>
            <text x="457.379px" y="279.158px" style="font-family:'Helvetica';font-size:20px;">Y</text>
        </g>
        <g>
            <circle cx="416" cy="272" r="16" style="fill:rgb(144,202,249);stroke:black;stroke-width:1px;"/>
            <text x="409.35px" y="279.158px" style="font-family:'Helvetica';font-size:20px;">X</text>
        </g>
    </g>
    <g>
        <g>
            <circle cx="344.205" cy="440" r="8" style="fill:rgb(255,204,128);stroke:black;stroke-width:1px;"/>
            <path d="M361.896,469.787L360.205,478L354.649,471.719L359.239,474.377L361.896,469.787Z"/>
            <path d="M352.205,448C352.205,448 357.11,466.395 359.239,474.377" style="fill:none;stroke:black;stroke-width:1px;"/>
            <path d="M333.761,471.719L328.205,478L326.514,469.787L329.171,474.377L333.761,471.719Z"/>
            <path d="M336.205,448C336.205,448 331.3,466.395 329.171,474.377" style="fill:none;stroke:black;stroke-width:1px;"/>
            <text x="319.375px" y="462.253px" style="font-family:'Helvetica';font-size:20px;">0</text>
            <text x="360.754px" y="462.375px" style="font-family:'Helvetica';font-size:20px;">1</text>
        </g>
        <g>
            <circle cx="248.205" cy="440" r="8" style="fill:rgb(255,204,128);stroke:black;stroke-width:1px;"/>
            <path d="M265.896,469.787L264.205,478L258.649,471.719L263.239,474.377L265.896,469.787Z"/>
            <path d="M256.205,448C256.205,448 261.11,466.395 263.239,474.377" style="fill:none;stroke:black;stroke-width:1px;"/>
            <path d="M237.761,471.719L232.205,478L230.514,469.787L233.171,474.377L237.761,471.719Z"/>
            <path d="M240.205,448C240.205,448 235.3,466.395 233.171,474.377" style="fill:none;stroke:black;stroke-width:1px;"/>
            <text x="223.375px" y="462.253px" style="font-family:'Helvetica';font-size:20px;">0</text>
            <text x="264.754px" y="462.375px" style="font-family:'Helvetica';font-size:20px;">1</text>
        </g>
        <g>
            <circle cx="152.205" cy="440" r="8" style="fill:rgb(255,204,128);stroke:black;stroke-width:1px;"/>
            <path d="M169.896,469.787L168.205,478L162.649,471.719L167.239,474.377L169.896,469.787Z"/>
            <path d="M160.205,448C160.205,448 165.11,466.395 167.239,474.377" style="fill:none;stroke:black;stroke-width:1px;"/>
            <path d="M141.761,471.719L136.205,478L134.514,469.787L137.171,474.377L141.761,471.719Z"/>
            <path d="M144.205,448C144.205,448 139.3,466.395 137.171,474.377" style="fill:none;stroke:black;stroke-width:1px;"/>
            <text x="127.375px" y="462.253px" style="font-family:'Helvetica';font-size:20px;">0</text>
            <text x="168.754px" y="462.375px" style="font-family:'Helvetica';font-size:20px;">1</text>
        </g>
        <g>
            <circle cx="56.205" cy="440" r="8" style="fill:rgb(255,204,128);stroke:black;stroke-width:1px;"/>
            <path d="M73.896,469.787L72.205,478L66.649,471.719L71.239,474.377L73.896,469.787Z"/>
            <path d="M64.205,448C64.205,448 69.11,466.395 71.239,474.377" style="fill:none;stroke:black;stroke-width:1px;"/>
            <path d="M45.761,471.719L40.205,478L38.514,469.787L41.171,474.377L45.761,471.719Z"/>
            <path d="M48.205,448C48.205,448 43.3,466.395 41.171,474.377" style="fill:none;stroke:black;stroke-width:1px;"/>
            <text x="31.375px" y="462.253px" style="font-family:'Helvetica';font-size:20px;">0</text>
            <text x="72.754px" y="462.375px" style="font-family:'Helvetica';font-size:20px;">1</text>
        </g>
        <g>
            <circle cx="296.205" cy="392" r="8" style="fill:rgb(255,204,128);stroke:black;stroke-width:1px;"/>
            <path d="M333.553,424.045L336.205,432L328.25,429.348L333.553,429.348L333.553,424.045Z"/>
            <path d="M304.205,400C304.205,400 325.882,421.676 333.553,429.348" style="fill:none;stroke:black;stroke-width:1px;"/>
            <path d="M264.16,429.348L256.205,432L258.857,424.045L258.857,429.348L264.16,429.348Z"/>
            <path d="M288.205,400C288.205,400 266.529,421.676 258.857,429.348" style="fill:none;stroke:black;stroke-width:1px;"/>
            <text x="255.375px" y="414.375px" style="font-family:'Helvetica';font-size:20px;">0</text>
            <text x="328.754px" y="414.619px" style="font-family:'Helvetica';font-size:20px;">1</text>
        </g>
        <g>
            <circle cx="104.205" cy="392" r="8" style="fill:rgb(255,204,128);stroke:black;stroke-width:1px;"/>
            <path d="M141.553,424.045L144.205,432L136.25,429.348L141.553,429.348L141.553,424.045Z"/>
            <path d="M112.205,400C112.205,400 133.882,421.676 141.553,429.348" style="fill:none;stroke:black;stroke-width:1px;"/>
            <path d="M72.16,429.348L64.205,432L66.857,424.045L66.857,429.348L72.16,429.348Z"/>
            <path d="M96.205,400C96.205,400 74.529,421.676 66.857,429.348" style="fill:none;stroke:black;stroke-width:1px;"/>
            <text x="63.375px" y="414.375px" style="font-family:'Helvetica';font-size:20px;">0</text>
            <text x="136.754px" y="414.619px" style="font-family:'Helvetica';font-size:20px;">1</text>
        </g>
        <g>
            <path d="M282.634,377.733L288.205,384L279.849,384.696L284.723,382.607L282.634,377.733Z"/>
            <path d="M208.205,352C208.205,352 269.337,376.453 284.723,382.607" style="fill:none;stroke:black;stroke-width:1px;"/>
            <path d="M120.561,384.696L112.205,384L117.776,377.733L115.687,382.607L120.561,384.696Z"/>
            <path d="M192.205,352C192.205,352 131.073,376.453 115.687,382.607" style="fill:none;stroke:black;stroke-width:1px;"/>
            <text x="143.375px" y="366.375px" style="font-family:'Helvetica';font-size:20px;">0</text>
            <text x="248.754px" y="366.375px" style="font-family:'Helvetica';font-size:20px;">1</text>
        </g>
        <g>
            <circle cx="200.205" cy="344" r="8" style="fill:rgb(200,230,201);stroke:black;stroke-width:1px;"/>
        </g>
    </g>
    <g>
        <g>
            <circle cx="751.917" cy="496" r="16" style="fill:rgb(144,202,249);stroke:black;stroke-width:1px;"/>
            <text x="742.469px" y="503.158px" style="font-family:'Helvetica';font-size:20px;">W</text>
        </g>
        <g>
            <circle cx="703.917" cy="496" r="16" style="fill:rgb(144,202,249);stroke:black;stroke-width:1px;"/>
            <text x="697.281px" y="503.158px" style="font-family:'Helvetica';font-size:20px;">V</text>
        </g>
        <g>
            <circle cx="655.917" cy="496" r="16" style="fill:rgb(144,202,249);stroke:black;stroke-width:1px;"/>
            <text x="648.715px" y="503.036px" style="font-family:'Helvetica';font-size:20px;">U</text>
        </g>
        <g>
            <circle cx="607.917" cy="496" r="16" style="fill:rgb(144,202,249);stroke:black;stroke-width:1px;"/>
            <text x="601.774px" y="503.158px" style="font-family:'Helvetica';font-size:20px;">T</text>
        </g>
        <g>
            <circle cx="559.917" cy="496" r="16" style="fill:rgb(144,202,249);stroke:black;stroke-width:1px;"/>
            <text x="553.32px" y="503.158px" style="font-family:'Helvetica';font-size:20px;">S</text>
        </g>
        <g>
            <circle cx="511.917" cy="496" r="16" style="fill:rgb(144,202,249);stroke:black;stroke-width:1px;"/>
            <text x="504.036px" y="503.158px" style="font-family:'Helvetica';font-size:20px;">R</text>
        </g>
        <g>
            <circle cx="463.917" cy="496" r="16" style="fill:rgb(144,202,249);stroke:black;stroke-width:1px;"/>
            <text x="456.075px" y="502.729px" style="font-family:'Helvetica';font-size:20px;">Q</text>
        </g>
        <g>
            <circle cx="415.917" cy="496" r="16" style="fill:rgb(144,202,249);stroke:black;stroke-width:1px;"/>
            <text x="408.91px" y="503.158px" style="font-family:'Helvetica';font-size:20px;">P</text>
        </g>
    </g>
    <g>
        <g>
            <circle cx="728.205" cy="440" r="8" style="fill:rgb(255,204,128);stroke:black;stroke-width:1px;"/>
            <path d="M745.896,469.787L744.205,478L738.649,471.719L743.239,474.377L745.896,469.787Z"/>
            <path d="M736.205,448C736.205,448 741.11,466.395 743.239,474.377" style="fill:none;stroke:black;stroke-width:1px;"/>
            <path d="M717.761,471.719L712.205,478L710.514,469.787L713.171,474.377L717.761,471.719Z"/>
            <path d="M720.205,448C720.205,448 715.3,466.395 713.171,474.377" style="fill:none;stroke:black;stroke-width:1px;"/>
            <text x="703.375px" y="462.253px" style="font-family:'Helvetica';font-size:20px;">0</text>
            <text x="744.754px" y="462.375px" style="font-family:'Helvetica';font-size:20px;">1</text>
        </g>
        <g>
            <circle cx="632.205" cy="440" r="8" style="fill:rgb(255,204,128);stroke:black;stroke-width:1px;"/>
            <path d="M649.896,469.787L648.205,478L642.649,471.719L647.239,474.377L649.896,469.787Z"/>
            <path d="M640.205,448C640.205,448 645.11,466.395 647.239,474.377" style="fill:none;stroke:black;stroke-width:1px;"/>
            <path d="M621.761,471.719L616.205,478L614.514,469.787L617.171,474.377L621.761,471.719Z"/>
            <path d="M624.205,448C624.205,448 619.3,466.395 617.171,474.377" style="fill:none;stroke:black;stroke-width:1px;"/>
            <text x="607.375px" y="462.253px" style="font-family:'Helvetica';font-size:20px;">0</text>
            <text x="648.754px" y="462.375px" style="font-family:'Helvetica';font-size:20px;">1</text>
        </g>
        <g>
            <circle cx="536.205" cy="440" r="8" style="fill:rgb(255,204,128);stroke:black;stroke-width:1px;"/>
            <path d="M553.896,469.787L552.205,478L546.649,471.719L551.239,474.377L553.896,469.787Z"/>
            <path d="M544.205,448C544.205,448 549.11,466.395 551.239,474.377" style="fill:none;stroke:black;stroke-width:1px;"/>
            <path d="M525.761,471.719L520.205,478L518.514,469.787L521.171,474.377L525.761,471.719Z"/>
            <path d="M528.205,448C528.205,448 523.3,466.395 521.171,474.377" style="fill:none;stroke:black;stroke-width:1px;"/>
            <text x="511.375px" y="462.253px" style="font-family:'Helvetica';font-size:20px;">0</text>
            <text x="552.754px" y="462.375px" style="font-family:'Helvetica';font-size:20px;">1</text>
        </g>
        <g>
            <circle cx="440.205" cy="440" r="8" style="fill:rgb(255,204,128);stroke:black;stroke-width:1px;"/>
            <path d="M457.896,469.787L456.205,478L450.649,471.719L455.239,474.377L457.896,469.787Z"/>
            <path d="M448.205,448C448.205,448 453.11,466.395 455.239,474.377" style="fill:none;stroke:black;stroke-width:1px;"/>
            <path d="M429.761,471.719L424.205,478L422.514,469.787L425.171,474.377L429.761,471.719Z"/>
            <path d="M432.205,448C432.205,448 427.3,466.395 425.171,474.377" style="fill:none;stroke:black;stroke-width:1px;"/>
            <text x="415.375px" y="462.253px" style="font-family:'Helvetica';font-size:20px;">0</text>
            <text x="456.754px" y="462.375px" style="font-family:'Helvetica';font-size:20px;">1</text>
        </g>
        <g>
            <circle cx="680.205" cy="392" r="8" style="fill:rgb(255,204,128);stroke:black;stroke-width:1px;"/>
            <path d="M717.553,424.045L720.205,432L712.25,429.348L717.553,429.348L717.553,424.045Z"/>
            <path d="M688.205,400C688.205,400 709.882,421.676 717.553,429.348" style="fill:none;stroke:black;stroke-width:1px;"/>
            <path d="M648.16,429.348L640.205,432L642.857,424.045L642.857,429.348L648.16,429.348Z"/>
            <path d="M672.205,400C672.205,400 650.529,421.676 642.857,429.348" style="fill:none;stroke:black;stroke-width:1px;"/>
            <text x="639.375px" y="414.375px" style="font-family:'Helvetica';font-size:20px;">0</text>
            <text x="712.754px" y="414.619px" style="font-family:'Helvetica';font-size:20px;">1</text>
        </g>
        <g>
            <circle cx="488.205" cy="392" r="8" style="fill:rgb(255,204,128);stroke:black;stroke-width:1px;"/>
            <path d="M525.553,424.045L528.205,432L520.25,429.348L525.553,429.348L525.553,424.045Z"/>
            <path d="M496.205,400C496.205,400 517.882,421.676 525.553,429.348" style="fill:none;stroke:black;stroke-width:1px;"/>
            <path d="M456.16,429.348L448.205,432L450.857,424.045L450.857,429.348L456.16,429.348Z"/>
            <path d="M480.205,400C480.205,400 458.529,421.676 450.857,429.348" style="fill:none;stroke:black;stroke-width:1px;"/>
            <text x="447.375px" y="414.375px" style="font-family:'Helvetica';font-size:20px;">0</text>
            <text x="520.754px" y="414.619px" style="font-family:'Helvetica';font-size:20px;">1</text>
        </g>
        <g>
            <path d="M666.634,377.733L672.205,384L663.849,384.696L668.723,382.607L666.634,377.733Z"/>
            <path d="M592.205,352C592.205,352 653.337,376.453 668.723,382.607" style="fill:none;stroke:black;stroke-width:1px;"/>
            <path d="M504.561,384.696L496.205,384L501.776,377.733L499.687,382.607L504.561,384.696Z"/>
            <path d="M576.205,352C576.205,352 515.073,376.453 499.687,382.607" style="fill:none;stroke:black;stroke-width:1px;"/>
            <text x="527.375px" y="366.375px" style="font-family:'Helvetica';font-size:20px;">0</text>
            <text x="632.754px" y="366.375px" style="font-family:'Helvetica';font-size:20px;">1</text>
        </g>
        <g>
            <circle cx="583.917" cy="344" r="8" style="fill:rgb(255,205,210);stroke:black;stroke-width:1px;"/>
        </g>
    </g>
    <g>
        <g>
            <circle cx="368" cy="496" r="16" style="fill:rgb(144,202,249);stroke:black;stroke-width:1px;"/>
            <text x="360.188px" y="503.163px" style="font-family:'Helvetica';font-size:20px;">O</text>
        </g>
        <g>
            <circle cx="320" cy="496" r="16" style="fill:rgb(144,202,249);stroke:black;stroke-width:1px;"/>
            <text x="312.837px" y="503.158px" style="font-family:'Helvetica';font-size:20px;">N</text>
        </g>
        <g>
            <circle cx="272" cy="496" r="16" style="fill:rgb(144,202,249);stroke:black;stroke-width:1px;"/>
            <text x="263.685px" y="503.158px" style="font-family:'Helvetica';font-size:20px;">M</text>
        </g>
        <g>
            <circle cx="224" cy="496" r="16" style="fill:rgb(144,202,249);stroke:black;stroke-width:1px;"/>
            <text x="218.063px" y="503.158px" style="font-family:'Helvetica';font-size:20px;">L</text>
        </g>
        <g>
            <circle cx="176" cy="496" r="16" style="fill:rgb(144,202,249);stroke:black;stroke-width:1px;"/>
            <text x="168.617px" y="503.158px" style="font-family:'Helvetica';font-size:20px;">K</text>
        </g>
        <g>
            <circle cx="128" cy="496" r="16" style="fill:rgb(144,202,249);stroke:black;stroke-width:1px;"/>
            <text x="122.542px" y="503.036px" style="font-family:'Helvetica';font-size:20px;">J</text>
        </g>
        <g>
            <circle cx="80" cy="496" r="16" style="fill:rgb(144,202,249);stroke:black;stroke-width:1px;"/>
            <text x="77.188px" y="503.158px" style="font-family:'Helvetica';font-size:20px;">I</text>
        </g>
        <g>
            <circle cx="32" cy="496" r="16" style="fill:rgb(144,202,249);stroke:black;stroke-width:1px;"/>
            <text x="24.783px" y="503.158px" style="font-family:'Helvetica';font-size:20px;">H</text>
        </g>
    </g>
    <g>
        <g>
            <circle cx="728.288" cy="216" r="8" style="fill:rgb(255,204,128);stroke:black;stroke-width:1px;"/>
            <path d="M745.979,245.787L744.288,254L738.732,247.719L743.322,250.377L745.979,245.787Z"/>
            <path d="M736.288,224C736.288,224 741.193,242.395 743.322,250.377" style="fill:none;stroke:black;stroke-width:1px;"/>
            <path d="M717.844,247.719L712.288,254L710.597,245.787L713.254,250.377L717.844,247.719Z"/>
            <path d="M720.288,224C720.288,224 715.383,242.395 713.254,250.377" style="fill:none;stroke:black;stroke-width:1px;"/>
            <text x="703.458px" y="238.253px" style="font-family:'Helvetica';font-size:20px;">0</text>
            <text x="744.837px" y="238.375px" style="font-family:'Helvetica';font-size:20px;">1</text>
        </g>
        <g>
            <circle cx="632.288" cy="216" r="8" style="fill:rgb(255,204,128);stroke:black;stroke-width:1px;"/>
            <path d="M649.979,245.787L648.288,254L642.732,247.719L647.322,250.377L649.979,245.787Z"/>
            <path d="M640.288,224C640.288,224 645.193,242.395 647.322,250.377" style="fill:none;stroke:black;stroke-width:1px;"/>
            <path d="M621.844,247.719L616.288,254L614.597,245.787L617.254,250.377L621.844,247.719Z"/>
            <path d="M624.288,224C624.288,224 619.383,242.395 617.254,250.377" style="fill:none;stroke:black;stroke-width:1px;"/>
            <text x="607.458px" y="238.253px" style="font-family:'Helvetica';font-size:20px;">0</text>
            <text x="648.837px" y="238.375px" style="font-family:'Helvetica';font-size:20px;">1</text>
        </g>
        <g>
            <circle cx="536.288" cy="216" r="8" style="fill:rgb(255,204,128);stroke:black;stroke-width:1px;"/>
            <path d="M553.979,245.787L552.288,254L546.732,247.719L551.322,250.377L553.979,245.787Z"/>
            <path d="M544.288,224C544.288,224 549.193,242.395 551.322,250.377" style="fill:none;stroke:black;stroke-width:1px;"/>
            <path d="M525.844,247.719L520.288,254L518.597,245.787L521.254,250.377L525.844,247.719Z"/>
            <path d="M528.288,224C528.288,224 523.383,242.395 521.254,250.377" style="fill:none;stroke:black;stroke-width:1px;"/>
            <text x="511.458px" y="238.253px" style="font-family:'Helvetica';font-size:20px;">0</text>
            <text x="552.837px" y="238.375px" style="font-family:'Helvetica';font-size:20px;">1</text>
        </g>
        <g>
            <circle cx="440.288" cy="216" r="8" style="fill:rgb(255,204,128);stroke:black;stroke-width:1px;"/>
            <path d="M457.979,245.787L456.288,254L450.732,247.719L455.322,250.377L457.979,245.787Z"/>
            <path d="M448.288,224C448.288,224 453.193,242.395 455.322,250.377" style="fill:none;stroke:black;stroke-width:1px;"/>
            <path d="M429.844,247.719L424.288,254L422.597,245.787L425.254,250.377L429.844,247.719Z"/>
            <path d="M432.288,224C432.288,224 427.383,242.395 425.254,250.377" style="fill:none;stroke:black;stroke-width:1px;"/>
            <text x="415.458px" y="238.253px" style="font-family:'Helvetica';font-size:20px;">0</text>
            <text x="456.837px" y="238.375px" style="font-family:'Helvetica';font-size:20px;">1</text>
        </g>
        <g>
            <circle cx="680.288" cy="168" r="8" style="fill:rgb(255,204,128);stroke:black;stroke-width:1px;"/>
            <path d="M717.636,200.045L720.288,208L712.333,205.348L717.636,205.348L717.636,200.045Z"/>
            <path d="M688.288,176C688.288,176 709.965,197.676 717.636,205.348" style="fill:none;stroke:black;stroke-width:1px;"/>
            <path d="M648.243,205.348L640.288,208L642.94,200.045L642.94,205.348L648.243,205.348Z"/>
            <path d="M672.288,176C672.288,176 650.612,197.676 642.94,205.348" style="fill:none;stroke:black;stroke-width:1px;"/>
            <text x="639.458px" y="190.375px" style="font-family:'Helvetica';font-size:20px;">0</text>
            <text x="712.837px" y="190.619px" style="font-family:'Helvetica';font-size:20px;">1</text>
        </g>
        <g>
            <circle cx="488.288" cy="168" r="8" style="fill:rgb(255,204,128);stroke:black;stroke-width:1px;"/>
            <path d="M525.636,200.045L528.288,208L520.333,205.348L525.636,205.348L525.636,200.045Z"/>
            <path d="M496.288,176C496.288,176 517.965,197.676 525.636,205.348" style="fill:none;stroke:black;stroke-width:1px;"/>
            <path d="M456.243,205.348L448.288,208L450.94,200.045L450.94,205.348L456.243,205.348Z"/>
            <path d="M480.288,176C480.288,176 458.612,197.676 450.94,205.348" style="fill:none;stroke:black;stroke-width:1px;"/>
            <text x="447.458px" y="190.375px" style="font-family:'Helvetica';font-size:20px;">0</text>
            <text x="520.837px" y="190.619px" style="font-family:'Helvetica';font-size:20px;">1</text>
        </g>
        <g>
            <circle cx="584.288" cy="120" r="8" style="fill:rgb(255,204,128);stroke:black;stroke-width:1px;"/>
            <path d="M666.717,153.733L672.288,160L663.932,160.696L668.806,158.607L666.717,153.733Z"/>
            <path d="M592.288,128C592.288,128 653.42,152.453 668.806,158.607" style="fill:none;stroke:black;stroke-width:1px;"/>
            <path d="M504.644,160.696L496.288,160L501.859,153.733L499.77,158.607L504.644,160.696Z"/>
            <path d="M576.288,128C576.288,128 515.156,152.453 499.77,158.607" style="fill:none;stroke:black;stroke-width:1px;"/>
            <text x="527.458px" y="142.375px" style="font-family:'Helvetica';font-size:20px;">0</text>
            <text x="632.837px" y="142.375px" style="font-family:'Helvetica';font-size:20px;">1</text>
        </g>
    </g>
    <g>
        <g>
            <circle cx="368" cy="272" r="16" style="fill:rgb(144,202,249);stroke:black;stroke-width:1px;"/>
            <text x="360.314px" y="279.158px" style="font-family:'Helvetica';font-size:20px;">G</text>
        </g>
        <g>
            <circle cx="320" cy="272" r="16" style="fill:rgb(144,202,249);stroke:black;stroke-width:1px;"/>
            <text x="313.53px" y="279.158px" style="font-family:'Helvetica';font-size:20px;">F</text>
        </g>
        <g>
            <circle cx="272" cy="272" r="16" style="fill:rgb(144,202,249);stroke:black;stroke-width:1px;"/>
            <text x="265.076px" y="279.158px" style="font-family:'Helvetica';font-size:20px;">E</text>
        </g>
        <g>
            <circle cx="224" cy="272" r="16" style="fill:rgb(144,202,249);stroke:black;stroke-width:1px;"/>
            <text x="216.539px" y="279.158px" style="font-family:'Helvetica';font-size:20px;">D</text>
        </g>
        <g>
            <circle cx="176" cy="272" r="16" style="fill:rgb(144,202,249);stroke:black;stroke-width:1px;"/>
            <text x="168.676px" y="279.158px" style="font-family:'Helvetica';font-size:20px;">C</text>
        </g>
        <g>
            <circle cx="128" cy="272" r="16" style="fill:rgb(144,202,249);stroke:black;stroke-width:1px;"/>
            <text x="121.13px" y="279.158px" style="font-family:'Helvetica';font-size:20px;">B</text>
        </g>
        <g>
            <circle cx="80" cy="272" r="16" style="fill:rgb(144,202,249);stroke:black;stroke-width:1px;"/>
            <text x="73.33px" y="279.158px" style="font-family:'Helvetica';font-size:20px;">A</text>
        </g>
        <g>
            <circle cx="32" cy="272" r="16" style="fill:rgb(144,202,249);stroke:black;stroke-width:1px;"/>
            <text x="23.25px" y="279px" style="font-family:'Helvetica';font-size:20px;">␣</text>
        </g>
    </g>
    <g>
        <g>
            <circle cx="344" cy="216" r="8" style="fill:rgb(255,204,128);stroke:black;stroke-width:1px;"/>
            <path d="M361.691,245.787L360,254L354.444,247.719L359.034,250.377L361.691,245.787Z"/>
            <path d="M352,224C352,224 356.905,242.395 359.034,250.377" style="fill:none;stroke:black;stroke-width:1px;"/>
            <path d="M333.556,247.719L328,254L326.309,245.787L328.966,250.377L333.556,247.719Z"/>
            <path d="M336,224C336,224 331.095,242.395 328.966,250.377" style="fill:none;stroke:black;stroke-width:1px;"/>
            <text x="319.17px" y="238.253px" style="font-family:'Helvetica';font-size:20px;">0</text>
            <text x="360.549px" y="238.375px" style="font-family:'Helvetica';font-size:20px;">1</text>
        </g>
        <g>
            <circle cx="248" cy="216" r="8" style="fill:rgb(255,204,128);stroke:black;stroke-width:1px;"/>
            <path d="M265.691,245.787L264,254L258.444,247.719L263.034,250.377L265.691,245.787Z"/>
            <path d="M256,224C256,224 260.905,242.395 263.034,250.377" style="fill:none;stroke:black;stroke-width:1px;"/>
            <path d="M237.556,247.719L232,254L230.309,245.787L232.966,250.377L237.556,247.719Z"/>
            <path d="M240,224C240,224 235.095,242.395 232.966,250.377" style="fill:none;stroke:black;stroke-width:1px;"/>
            <text x="223.17px" y="238.253px" style="font-family:'Helvetica';font-size:20px;">0</text>
            <text x="264.549px" y="238.375px" style="font-family:'Helvetica';font-size:20px;">1</text>
        </g>
        <g>
            <circle cx="152" cy="216" r="8" style="fill:rgb(255,204,128);stroke:black;stroke-width:1px;"/>
            <path d="M169.691,245.787L168,254L162.444,247.719L167.034,250.377L169.691,245.787Z"/>
            <path d="M160,224C160,224 164.905,242.395 167.034,250.377" style="fill:none;stroke:black;stroke-width:1px;"/>
            <path d="M141.556,247.719L136,254L134.309,245.787L136.966,250.377L141.556,247.719Z"/>
            <path d="M144,224C144,224 139.095,242.395 136.966,250.377" style="fill:none;stroke:black;stroke-width:1px;"/>
            <text x="127.17px" y="238.253px" style="font-family:'Helvetica';font-size:20px;">0</text>
            <text x="168.549px" y="238.375px" style="font-family:'Helvetica';font-size:20px;">1</text>
        </g>
        <g>
            <circle cx="56" cy="216" r="8" style="fill:rgb(255,204,128);stroke:black;stroke-width:1px;"/>
            <path d="M73.691,245.787L72,254L66.444,247.719L71.034,250.377L73.691,245.787Z"/>
            <path d="M64,224C64,224 68.905,242.395 71.034,250.377" style="fill:none;stroke:black;stroke-width:1px;"/>
            <path d="M45.556,247.719L40,254L38.309,245.787L40.966,250.377L45.556,247.719Z"/>
            <path d="M48,224C48,224 43.095,242.395 40.966,250.377" style="fill:none;stroke:black;stroke-width:1px;"/>
            <text x="31.17px" y="238.253px" style="font-family:'Helvetica';font-size:20px;">0</text>
            <text x="72.549px" y="238.375px" style="font-family:'Helvetica';font-size:20px;">1</text>
        </g>
        <g>
            <circle cx="296" cy="168" r="8" style="fill:rgb(255,204,128);stroke:black;stroke-width:1px;"/>
            <path d="M333.348,200.045L336,208L328.045,205.348L333.348,205.348L333.348,200.045Z"/>
            <path d="M304,176C304,176 325.676,197.676 333.348,205.348" style="fill:none;stroke:black;stroke-width:1px;"/>
            <path d="M263.955,205.348L256,208L258.652,200.045L258.652,205.348L263.955,205.348Z"/>
            <path d="M288,176C288,176 266.324,197.676 258.652,205.348" style="fill:none;stroke:black;stroke-width:1px;"/>
            <text x="255.17px" y="190.375px" style="font-family:'Helvetica';font-size:20px;">0</text>
            <text x="328.549px" y="190.619px" style="font-family:'Helvetica';font-size:20px;">1</text>
        </g>
        <g>
            <circle cx="104" cy="168" r="8" style="fill:rgb(255,204,128);stroke:black;stroke-width:1px;"/>
            <path d="M141.348,200.045L144,208L136.045,205.348L141.348,205.348L141.348,200.045Z"/>
            <path d="M112,176C112,176 133.676,197.676 141.348,205.348" style="fill:none;stroke:black;stroke-width:1px;"/>
            <path d="M71.955,205.348L64,208L66.652,200.045L66.652,205.348L71.955,205.348Z"/>
            <path d="M96,176C96,176 74.324,197.676 66.652,205.348" style="fill:none;stroke:black;stroke-width:1px;"/>
            <text x="63.17px" y="190.375px" style="font-family:'Helvetica';font-size:20px;">0</text>
            <text x="136.549px" y="190.619px" style="font-family:'Helvetica';font-size:20px;">1</text>
        </g>
        <g>
            <circle cx="200" cy="120" r="8" style="fill:rgb(255,204,128);stroke:black;stroke-width:1px;"/>
            <path d="M282.429,153.733L288,160L279.644,160.696L284.518,158.607L282.429,153.733Z"/>
            <path d="M208,128C208,128 269.132,152.453 284.518,158.607" style="fill:none;stroke:black;stroke-width:1px;"/>
            <path d="M120.356,160.696L112,160L117.571,153.733L115.482,158.607L120.356,160.696Z"/>
            <path d="M192,128C192,128 130.868,152.453 115.482,158.607" style="fill:none;stroke:black;stroke-width:1px;"/>
            <text x="143.17px" y="142.375px" style="font-family:'Helvetica';font-size:20px;">0</text>
            <text x="248.549px" y="142.375px" style="font-family:'Helvetica';font-size:20px;">1</text>
        </g>
    </g>
    <g>
        <g>
            <circle cx="440" cy="120" r="8" style="fill:rgb(255,205,210);stroke:black;stroke-width:1px;"/>
        </g>
        <circle cx="488" cy="72" r="8" style="fill:rgb(255,204,128);stroke:black;stroke-width:1px;"/>
        <path d="M570.429,105.733L576,112L567.644,112.696L572.518,110.607L570.429,105.733Z"/>
        <path d="M496,80C496,80 557.132,104.453 572.518,110.607" style="fill:none;stroke:black;stroke-width:1px;"/>
        <path d="M454.995,109.471L447,112L449.774,104.087L449.692,109.389L454.995,109.471Z"/>
        <path d="M480,80C480,80 457.566,101.754 449.692,109.389" style="fill:none;stroke:black;stroke-width:1px;"/>
        <text x="453.375px" y="93.984px" style="font-family:'Helvetica';font-size:20px;">0</text>
        <text x="536.549px" y="94.375px" style="font-family:'Helvetica';font-size:20px;">1</text>
    </g>
    <g>
        <circle cx="296" cy="72" r="8" style="fill:rgb(255,204,128);stroke:black;stroke-width:1px;"/>
        <path d="M333.348,104.045L336,112L328.045,109.348L333.348,109.348L333.348,104.045Z"/>
        <path d="M304,80C304,80 325.676,101.676 333.348,109.348" style="fill:none;stroke:black;stroke-width:1px;"/>
        <path d="M216.356,112.696L208,112L213.571,105.733L211.482,110.607L216.356,112.696Z"/>
        <path d="M288,80C288,80 226.868,104.453 211.482,110.607" style="fill:none;stroke:black;stroke-width:1px;"/>
        <text x="239.17px" y="94.375px" style="font-family:'Helvetica';font-size:20px;">0</text>
        <text x="321.086px" y="93.926px" style="font-family:'Helvetica';font-size:20px;">1</text>
    </g>
    <g>
        <circle cx="392" cy="24" r="8" style="fill:rgb(255,204,128);stroke:black;stroke-width:1px;"/>
        <path d="M474.429,57.733L480,64L471.644,64.696L476.518,62.607L474.429,57.733Z"/>
        <path d="M400,32C400,32 461.132,56.453 476.518,62.607" style="fill:none;stroke:black;stroke-width:1px;"/>
        <path d="M312.356,64.696L304,64L309.571,57.733L307.482,62.607L312.356,64.696Z"/>
        <path d="M384,32C384,32 322.868,56.453 307.482,62.607" style="fill:none;stroke:black;stroke-width:1px;"/>
        <text x="335.17px" y="46.375px" style="font-family:'Helvetica';font-size:20px;">0</text>
        <text x="440.549px" y="46.375px" style="font-family:'Helvetica';font-size:20px;">1</text>
    </g>
    <g>
        <circle cx="344" cy="120" r="8" style="fill:rgb(200,230,201);stroke:black;stroke-width:1px;"/>
    </g>
    <g>
        <text x="556.25px" y="278.738px" style="font-family:'Helvetica';font-size:20px;">,</text>
        <text x="604.719px" y="277.557px" style="font-family:'Helvetica';font-size:20px;">-</text>
        <text x="653.271px" y="281.287px" style="font-family:'Helvetica';font-size:20px;">.</text>
        <text x="698.126px" y="280.223px" style="font-family:'Helvetica';font-size:20px;">?</text>
    </g>
</svg>
