<svg width="50" height="65" xmlns="http://www.w3.org/2000/svg">
<circle cx="15" cy="15" r="5" fill="black" />
<circle cx="35" cy="15" r="5" stroke="black" fill="none" />
<circle cx="15" cy="35" r="5" stroke="black" fill="none" />
<circle cx="35" cy="35" r="5" stroke="black" fill="none" />
<circle cx="15" cy="55" r="5" stroke="black" fill="none" />
<circle cx="35" cy="55" r="5" stroke="black" fill="none" />
</svg>
