{
  "author_name": "10binary",
  "author_uri": "https://openclipart.org/artist/10binary",
  "licence": "CC0",
  "source_name": "Openclipart",
  "source_uri": "https://openclipart.org/detail/136057/circle-rgb-color-mix"
}
