{
  "apple-newton.jpg": {
    "author_name": "Ralf Pfeifer",
    "licence": "CC-BY-SA-3.0",
    "source_name": "Wikimedia Commons",
    "source_uri": "https://commons.wikimedia.org/wiki/File:Apple_Newton.jpg"
  },
  "apple-logo-rainbow.svg": {
    "author_name": "Apple",
    "source_name": "Wikimedia Commons",
    "source_uri": "https://commons.wikimedia.org/wiki/File:Apple_Computer_Logo_rainbow.svg"
  },
  "cassette.svg": {
    "author_name": "OpenClipart-Vectors",
    "author_uri": "https://pixabay.com/de/users/openclipart-vectors-30363/",
    "licence": "CC0",
    "source_name": "Pixabay",
    "source_uri": "https://pixabay.com/images/id-157537/"
  },
  "compact-disc.svg": {
    "author_name": "Arun Kulshreshtha",
    "author_uri": "https://commons.wikimedia.org/wiki/User:Kulshrax",
    "licence": "CC-BY-SA-2.5",
    "source_name": "Wikimedia Commons",
    "source_uri": "https://commons.wikimedia.org/wiki/File:OD_Compact_disc.svg"
  },
  "harddisk.svg": {
    "author_name": "OpenClipart-Vectors",
    "author_uri": "https://pixabay.com/de/users/openclipart-vectors-30363/",
    "licence": "CC0",
    "source_name": "Pixabay",
    "source_uri": "https://pixabay.com/images/id-1292844/"
  },
  "hdd.svg": {
    "author_name": "OpenClipart-Vectors",
    "author_uri": "https://pixabay.com/de/users/openclipart-vectors-30363/",
    "licence": "CC0",
    "source_name": "Pixabay",
    "source_uri": "https://pixabay.com/photo-154463/"
  },
  "instagram-cc.jpg": {
    "author_name": "Creative Commons Korea",
    "licence": "CC-BY-2.0",
    "source_name": "Instagram",
    "source_uri": "https://www.instagram.com/p/BKGqON5g_ep/"
  },
  "iphone-11.svg": {
    "author_name": "Rafael Fernandez",
    "author_uri": "https://commons.wikimedia.org/wiki/User:TheGoldenBox",
    "licence": "CC-BY-SA-4.0",
    "source_name": "Wikimedia Commons",
    "source_uri": "https://commons.wikimedia.org/wiki/File:IPhone_11_White.svg"
  },
  "mobile-antenna.jpg": {
    "author_name": "Csaba Nagy",
    "author_uri": "https://pixabay.com/de/users/pix1861-468748/",
    "licence": "CC0",
    "source_name": "Pixabay",
    "source_uri": "https://pixabay.com/images/id-1120097/"
  },
  "netflix-logo.svg": {
    "author_name": "Netflix",
    "source_name": "Wikimedia Commons",
    "source_uri": "https://commons.wikimedia.org/wiki/File:Netflix_2015_logo.svg"
  },
  "optical-fiber.jpg": {
    "author_name": "4028mdk09",
    "author_uri": "https://commons.wikimedia.org/wiki/User:4028mdk09",
    "licence": "CC-BY-SA-3.0",
    "source_name": "Wikimedia Commons",
    "source_uri": "https://commons.wikimedia.org/wiki/File:Blaue_LED-Fiberglasleuchte.JPG"
  },
  "photo.jpg": {
    "author_name": "Unbekannt",
    "author_uri": "https://pixabay.com/de/users/453169/",
    "licence": "CC0",
    "source_name": "Pixabay",
    "source_uri": "https://pixabay.com/photo-806915/"
  },
  "processor.jpg": {
    "author_name": "Matt Gibbs",
    "licence": "CC-BY-SA-3.0",
    "source_name": "Wikimedia Commons",
    "source_uri": "https://commons.wikimedia.org/wiki/File:80486dx2-large.jpg"
  },
  "punched-card.png": {
    "author_name": "Harke",
    "author_uri": "https://commons.wikimedia.org/wiki/User:Harke",
    "licence": "CC-BY-SA-3.0",
    "source_name": "Wikimedia Commons",
    "source_uri": "https://commons.wikimedia.org/wiki/File:Punch_card_Fortran_Uni_Stuttgart_(4).jpg"
  },
  "ram.jpg": {
    "author_name": "Evan-Amos",
    "author_uri": "https://commons.wikimedia.org/wiki/User:Evan-Amos",
    "licence": "CC0",
    "source_name": "Wikimedia Commons",
    "source_uri": "https://commons.wikimedia.org/wiki/File:Samsung-1GB-DDR2-Laptop-RAM.jpg"
  },
  "ssd.jpg": {
    "author_name": "Samsung Belgium",
    "author_uri": "https://www.flickr.com/photos/samsungbelgium/",
    "licence_name": "Creative Commons Attribution 2.0",
    "licence_uri": "https://creativecommons.org/licenses/by/2.0/",
    "source_name": "Flickr",
    "source_uri": "https://www.flickr.com/photos/60952012@N06/9350238150"
  }
}
