{
  "author_name": "Anthony",
  "author_uri": "https://pixabay.com/de/users/InspiredImages-57296/",
  "licence": "Pixabay",
  "source_name": "Pixabay",
  "source_uri": "https://pixabay.com/images/id-1056221/"
}
