{
  "author_name": "Jüppsche~commonswiki",
  "author_uri": "https://commons.wikimedia.org/wiki/User:J%C3%BCppsche~commonswiki",
  "licence": "CC-BY-SA-2.5",
  "source_name": "Wikimedia",
  "source_uri": "https://commons.wikimedia.org/wiki/File:Bee_dance.svg"
}
