{
  "author_name": "Oimheidi",
  "author_uri": "https://pixabay.com/de/users/Oimheidi-1660138/",
  "licence": "Pixabay",
  "source_name": "Pixabay",
  "source_uri": "https://pixabay.com/images/id-1455285/"
}
