{
  "author_name": "Gerd Altmann",
  "author_uri": "https://pixabay.com/de/users/geralt-9301/",
  "licence": "Pixabay",
  "source_name": "Pixabay",
  "source_uri": "https://pixabay.com/images/id-64170/"
}
