<?xml version="1.0" encoding="UTF-8" standalone="no"?>
<svg
   xmlns:dc="http://purl.org/dc/elements/1.1/"
   xmlns:cc="http://creativecommons.org/ns#"
   xmlns:rdf="http://www.w3.org/1999/02/22-rdf-syntax-ns#"
   xmlns:svg="http://www.w3.org/2000/svg"
   xmlns="http://www.w3.org/2000/svg"
   xmlns:xlink="http://www.w3.org/1999/xlink"
   xmlns:sodipodi="http://sodipodi.sourceforge.net/DTD/sodipodi-0.dtd"
   xmlns:inkscape="http://www.inkscape.org/namespaces/inkscape"
   width="602pt"
   height="362pt"
   viewBox="0 0 602 362"
   version="1.1"
   id="svg411"
   sodipodi:docname="communication-empty.svg"
   inkscape:version="0.92.4 (5da689c313, 2019-01-14)">
  <metadata
     id="metadata415">
    <rdf:RDF>
      <cc:Work
         rdf:about="">
        <dc:format>image/svg+xml</dc:format>
        <dc:type
           rdf:resource="http://purl.org/dc/dcmitype/StillImage" />
        <dc:title></dc:title>
      </cc:Work>
    </rdf:RDF>
  </metadata>
  <sodipodi:namedview
     pagecolor="#ffffff"
     bordercolor="#666666"
     borderopacity="1"
     objecttolerance="10"
     gridtolerance="10"
     guidetolerance="10"
     inkscape:pageopacity="0"
     inkscape:pageshadow="2"
     inkscape:window-width="640"
     inkscape:window-height="480"
     id="namedview413"
     showgrid="false"
     inkscape:zoom="0.57596685"
     inkscape:cx="-122.13429"
     inkscape:cy="241.33333"
     inkscape:current-layer="svg411" />
  <defs
     id="defs88">
    <g
       id="g86">
      <symbol
         overflow="visible"
         id="glyph0-0">
        <path
           style="stroke:none;"
           d="M 0.84375 3 L 0.84375 -11.9375 L 9.3125 -11.9375 L 9.3125 3 Z M 1.796875 2.046875 L 8.375 2.046875 L 8.375 -10.984375 L 1.796875 -10.984375 Z M 1.796875 2.046875 "
           id="path2" />
      </symbol>
      <symbol
         overflow="visible"
         id="glyph0-1">
        <path
           style="stroke:none;"
           d="M 1.65625 -12.34375 L 3.328125 -12.34375 L 3.328125 0 L 1.65625 0 Z M 1.65625 -12.34375 "
           id="path5" />
      </symbol>
      <symbol
         overflow="visible"
         id="glyph0-2">
        <path
           style="stroke:none;"
           d="M 9.296875 -5.59375 L 9.296875 0 L 7.78125 0 L 7.78125 -5.546875 C 7.78125 -6.421875 7.609375 -7.070312 7.265625 -7.5 C 6.921875 -7.9375 6.40625 -8.15625 5.71875 -8.15625 C 4.894531 -8.15625 4.242188 -7.894531 3.765625 -7.375 C 3.296875 -6.851562 3.0625 -6.140625 3.0625 -5.234375 L 3.0625 0 L 1.53125 0 L 1.53125 -9.265625 L 3.0625 -9.265625 L 3.0625 -7.828125 C 3.425781 -8.378906 3.851562 -8.789062 4.34375 -9.0625 C 4.84375 -9.34375 5.414062 -9.484375 6.0625 -9.484375 C 7.125 -9.484375 7.925781 -9.15625 8.46875 -8.5 C 9.019531 -7.84375 9.296875 -6.875 9.296875 -5.59375 Z M 9.296875 -5.59375 "
           id="path8" />
      </symbol>
      <symbol
         overflow="visible"
         id="glyph0-3">
        <path
           style="stroke:none;"
           d="M 6.28125 -12.875 L 6.28125 -11.609375 L 4.828125 -11.609375 C 4.285156 -11.609375 3.90625 -11.492188 3.6875 -11.265625 C 3.476562 -11.046875 3.375 -10.648438 3.375 -10.078125 L 3.375 -9.265625 L 5.875 -9.265625 L 5.875 -8.078125 L 3.375 -8.078125 L 3.375 0 L 1.84375 0 L 1.84375 -8.078125 L 0.390625 -8.078125 L 0.390625 -9.265625 L 1.84375 -9.265625 L 1.84375 -9.90625 C 1.84375 -10.9375 2.082031 -11.6875 2.5625 -12.15625 C 3.039062 -12.632812 3.800781 -12.875 4.84375 -12.875 Z M 6.28125 -12.875 "
           id="path11" />
      </symbol>
      <symbol
         overflow="visible"
         id="glyph0-4">
        <path
           style="stroke:none;"
           d="M 5.1875 -8.203125 C 4.375 -8.203125 3.726562 -7.878906 3.25 -7.234375 C 2.769531 -6.597656 2.53125 -5.726562 2.53125 -4.625 C 2.53125 -3.507812 2.765625 -2.632812 3.234375 -2 C 3.710938 -1.363281 4.363281 -1.046875 5.1875 -1.046875 C 6 -1.046875 6.640625 -1.363281 7.109375 -2 C 7.585938 -2.644531 7.828125 -3.519531 7.828125 -4.625 C 7.828125 -5.71875 7.585938 -6.585938 7.109375 -7.234375 C 6.640625 -7.878906 6 -8.203125 5.1875 -8.203125 Z M 5.1875 -9.484375 C 6.507812 -9.484375 7.546875 -9.050781 8.296875 -8.1875 C 9.054688 -7.332031 9.4375 -6.144531 9.4375 -4.625 C 9.4375 -3.101562 9.054688 -1.910156 8.296875 -1.046875 C 7.546875 -0.191406 6.507812 0.234375 5.1875 0.234375 C 3.851562 0.234375 2.8125 -0.191406 2.0625 -1.046875 C 1.3125 -1.910156 0.9375 -3.101562 0.9375 -4.625 C 0.9375 -6.144531 1.3125 -7.332031 2.0625 -8.1875 C 2.8125 -9.050781 3.851562 -9.484375 5.1875 -9.484375 Z M 5.1875 -9.484375 "
           id="path14" />
      </symbol>
      <symbol
         overflow="visible"
         id="glyph0-5">
        <path
           style="stroke:none;"
           d="M 6.96875 -7.84375 C 6.789062 -7.9375 6.601562 -8.003906 6.40625 -8.046875 C 6.207031 -8.097656 5.984375 -8.125 5.734375 -8.125 C 4.878906 -8.125 4.21875 -7.84375 3.75 -7.28125 C 3.289062 -6.726562 3.0625 -5.925781 3.0625 -4.875 L 3.0625 0 L 1.53125 0 L 1.53125 -9.265625 L 3.0625 -9.265625 L 3.0625 -7.828125 C 3.382812 -8.390625 3.800781 -8.804688 4.3125 -9.078125 C 4.832031 -9.347656 5.457031 -9.484375 6.1875 -9.484375 C 6.289062 -9.484375 6.40625 -9.472656 6.53125 -9.453125 C 6.65625 -9.441406 6.796875 -9.425781 6.953125 -9.40625 Z M 6.96875 -7.84375 "
           id="path17" />
      </symbol>
      <symbol
         overflow="visible"
         id="glyph0-6">
        <path
           style="stroke:none;"
           d="M 8.8125 -7.484375 C 9.1875 -8.171875 9.640625 -8.675781 10.171875 -9 C 10.703125 -9.320312 11.328125 -9.484375 12.046875 -9.484375 C 13.003906 -9.484375 13.742188 -9.144531 14.265625 -8.46875 C 14.796875 -7.789062 15.0625 -6.832031 15.0625 -5.59375 L 15.0625 0 L 13.53125 0 L 13.53125 -5.546875 C 13.53125 -6.429688 13.375 -7.085938 13.0625 -7.515625 C 12.75 -7.941406 12.269531 -8.15625 11.625 -8.15625 C 10.832031 -8.15625 10.207031 -7.894531 9.75 -7.375 C 9.289062 -6.851562 9.0625 -6.140625 9.0625 -5.234375 L 9.0625 0 L 7.53125 0 L 7.53125 -5.546875 C 7.53125 -6.429688 7.375 -7.085938 7.0625 -7.515625 C 6.75 -7.941406 6.265625 -8.15625 5.609375 -8.15625 C 4.828125 -8.15625 4.207031 -7.890625 3.75 -7.359375 C 3.289062 -6.835938 3.0625 -6.128906 3.0625 -5.234375 L 3.0625 0 L 1.53125 0 L 1.53125 -9.265625 L 3.0625 -9.265625 L 3.0625 -7.828125 C 3.414062 -8.390625 3.832031 -8.804688 4.3125 -9.078125 C 4.800781 -9.347656 5.378906 -9.484375 6.046875 -9.484375 C 6.710938 -9.484375 7.28125 -9.3125 7.75 -8.96875 C 8.226562 -8.625 8.582031 -8.128906 8.8125 -7.484375 Z M 8.8125 -7.484375 "
           id="path20" />
      </symbol>
      <symbol
         overflow="visible"
         id="glyph0-7">
        <path
           style="stroke:none;"
           d="M 5.8125 -4.65625 C 4.582031 -4.65625 3.726562 -4.515625 3.25 -4.234375 C 2.769531 -3.953125 2.53125 -3.472656 2.53125 -2.796875 C 2.53125 -2.253906 2.707031 -1.820312 3.0625 -1.5 C 3.425781 -1.1875 3.914062 -1.03125 4.53125 -1.03125 C 5.375 -1.03125 6.046875 -1.328125 6.546875 -1.921875 C 7.054688 -2.523438 7.3125 -3.320312 7.3125 -4.3125 L 7.3125 -4.65625 Z M 8.84375 -5.28125 L 8.84375 0 L 7.3125 0 L 7.3125 -1.40625 C 6.96875 -0.84375 6.535156 -0.425781 6.015625 -0.15625 C 5.503906 0.101562 4.875 0.234375 4.125 0.234375 C 3.175781 0.234375 2.421875 -0.03125 1.859375 -0.5625 C 1.296875 -1.09375 1.015625 -1.804688 1.015625 -2.703125 C 1.015625 -3.742188 1.363281 -4.523438 2.0625 -5.046875 C 2.757812 -5.578125 3.800781 -5.84375 5.1875 -5.84375 L 7.3125 -5.84375 L 7.3125 -6 C 7.3125 -6.695312 7.082031 -7.238281 6.625 -7.625 C 6.164062 -8.007812 5.519531 -8.203125 4.6875 -8.203125 C 4.15625 -8.203125 3.640625 -8.132812 3.140625 -8 C 2.640625 -7.875 2.160156 -7.6875 1.703125 -7.4375 L 1.703125 -8.84375 C 2.253906 -9.050781 2.789062 -9.207031 3.3125 -9.3125 C 3.84375 -9.425781 4.351562 -9.484375 4.84375 -9.484375 C 6.1875 -9.484375 7.1875 -9.132812 7.84375 -8.4375 C 8.507812 -7.75 8.84375 -6.695312 8.84375 -5.28125 Z M 8.84375 -5.28125 "
           id="path23" />
      </symbol>
      <symbol
         overflow="visible"
         id="glyph0-8">
        <path
           style="stroke:none;"
           d="M 3.09375 -11.890625 L 3.09375 -9.265625 L 6.234375 -9.265625 L 6.234375 -8.078125 L 3.09375 -8.078125 L 3.09375 -3.046875 C 3.09375 -2.296875 3.195312 -1.8125 3.40625 -1.59375 C 3.613281 -1.382812 4.035156 -1.28125 4.671875 -1.28125 L 6.234375 -1.28125 L 6.234375 0 L 4.671875 0 C 3.492188 0 2.679688 -0.21875 2.234375 -0.65625 C 1.796875 -1.09375 1.578125 -1.890625 1.578125 -3.046875 L 1.578125 -8.078125 L 0.453125 -8.078125 L 0.453125 -9.265625 L 1.578125 -9.265625 L 1.578125 -11.890625 Z M 3.09375 -11.890625 "
           id="path26" />
      </symbol>
      <symbol
         overflow="visible"
         id="glyph0-9">
        <path
           style="stroke:none;"
           d="M 1.59375 -9.265625 L 3.125 -9.265625 L 3.125 0 L 1.59375 0 Z M 1.59375 -12.875 L 3.125 -12.875 L 3.125 -10.9375 L 1.59375 -10.9375 Z M 1.59375 -12.875 "
           id="path29" />
      </symbol>
      <symbol
         overflow="visible"
         id="glyph0-10">
        <path
           style="stroke:none;"
           d="M 10.90625 -11.390625 L 10.90625 -9.640625 C 10.34375 -10.160156 9.742188 -10.550781 9.109375 -10.8125 C 8.472656 -11.070312 7.796875 -11.203125 7.078125 -11.203125 C 5.671875 -11.203125 4.59375 -10.769531 3.84375 -9.90625 C 3.09375 -9.039062 2.71875 -7.789062 2.71875 -6.15625 C 2.71875 -4.53125 3.09375 -3.285156 3.84375 -2.421875 C 4.59375 -1.566406 5.671875 -1.140625 7.078125 -1.140625 C 7.796875 -1.140625 8.472656 -1.265625 9.109375 -1.515625 C 9.742188 -1.773438 10.34375 -2.171875 10.90625 -2.703125 L 10.90625 -0.953125 C 10.320312 -0.554688 9.703125 -0.257812 9.046875 -0.0625 C 8.398438 0.132812 7.710938 0.234375 6.984375 0.234375 C 5.109375 0.234375 3.632812 -0.332031 2.5625 -1.46875 C 1.488281 -2.613281 0.953125 -4.175781 0.953125 -6.15625 C 0.953125 -8.144531 1.488281 -9.710938 2.5625 -10.859375 C 3.632812 -12.003906 5.109375 -12.578125 6.984375 -12.578125 C 7.722656 -12.578125 8.414062 -12.476562 9.0625 -12.28125 C 9.71875 -12.082031 10.332031 -11.785156 10.90625 -11.390625 Z M 10.90625 -11.390625 "
           id="path32" />
      </symbol>
      <symbol
         overflow="visible"
         id="glyph0-11">
        <path
           style="stroke:none;"
           d="M 7.6875 -7.859375 L 7.6875 -12.875 L 9.21875 -12.875 L 9.21875 0 L 7.6875 0 L 7.6875 -1.390625 C 7.375 -0.835938 6.972656 -0.425781 6.484375 -0.15625 C 5.992188 0.101562 5.40625 0.234375 4.71875 0.234375 C 3.601562 0.234375 2.691406 -0.207031 1.984375 -1.09375 C 1.285156 -1.988281 0.9375 -3.164062 0.9375 -4.625 C 0.9375 -6.082031 1.285156 -7.253906 1.984375 -8.140625 C 2.691406 -9.035156 3.601562 -9.484375 4.71875 -9.484375 C 5.40625 -9.484375 5.992188 -9.347656 6.484375 -9.078125 C 6.972656 -8.816406 7.375 -8.410156 7.6875 -7.859375 Z M 2.5 -4.625 C 2.5 -3.5 2.726562 -2.617188 3.1875 -1.984375 C 3.65625 -1.347656 4.289062 -1.03125 5.09375 -1.03125 C 5.894531 -1.03125 6.523438 -1.347656 6.984375 -1.984375 C 7.453125 -2.617188 7.6875 -3.5 7.6875 -4.625 C 7.6875 -5.738281 7.453125 -6.613281 6.984375 -7.25 C 6.523438 -7.894531 5.894531 -8.21875 5.09375 -8.21875 C 4.289062 -8.21875 3.65625 -7.894531 3.1875 -7.25 C 2.726562 -6.613281 2.5 -5.738281 2.5 -4.625 Z M 2.5 -4.625 "
           id="path35" />
      </symbol>
      <symbol
         overflow="visible"
         id="glyph0-12">
        <path
           style="stroke:none;"
           d="M 9.515625 -5.015625 L 9.515625 -4.265625 L 2.515625 -4.265625 C 2.585938 -3.222656 2.90625 -2.425781 3.46875 -1.875 C 4.03125 -1.320312 4.816406 -1.046875 5.828125 -1.046875 C 6.410156 -1.046875 6.976562 -1.117188 7.53125 -1.265625 C 8.082031 -1.410156 8.625 -1.625 9.15625 -1.90625 L 9.15625 -0.46875 C 8.613281 -0.238281 8.054688 -0.0664062 7.484375 0.046875 C 6.910156 0.171875 6.328125 0.234375 5.734375 0.234375 C 4.253906 0.234375 3.082031 -0.191406 2.21875 -1.046875 C 1.363281 -1.910156 0.9375 -3.078125 0.9375 -4.546875 C 0.9375 -6.054688 1.34375 -7.253906 2.15625 -8.140625 C 2.976562 -9.035156 4.082031 -9.484375 5.46875 -9.484375 C 6.71875 -9.484375 7.703125 -9.082031 8.421875 -8.28125 C 9.148438 -7.476562 9.515625 -6.390625 9.515625 -5.015625 Z M 8 -5.453125 C 7.988281 -6.285156 7.753906 -6.953125 7.296875 -7.453125 C 6.835938 -7.953125 6.234375 -8.203125 5.484375 -8.203125 C 4.640625 -8.203125 3.960938 -7.957031 3.453125 -7.46875 C 2.941406 -6.988281 2.648438 -6.316406 2.578125 -5.453125 Z M 8 -5.453125 "
           id="path38" />
      </symbol>
      <symbol
         overflow="visible"
         id="glyph0-13">
        <path
           style="stroke:none;"
           d="M 1.4375 -3.65625 L 1.4375 -9.265625 L 2.953125 -9.265625 L 2.953125 -3.71875 C 2.953125 -2.832031 3.125 -2.171875 3.46875 -1.734375 C 3.8125 -1.296875 4.328125 -1.078125 5.015625 -1.078125 C 5.835938 -1.078125 6.484375 -1.335938 6.953125 -1.859375 C 7.429688 -2.390625 7.671875 -3.109375 7.671875 -4.015625 L 7.671875 -9.265625 L 9.203125 -9.265625 L 9.203125 0 L 7.671875 0 L 7.671875 -1.421875 C 7.304688 -0.859375 6.878906 -0.441406 6.390625 -0.171875 C 5.898438 0.0976562 5.332031 0.234375 4.6875 0.234375 C 3.625 0.234375 2.816406 -0.09375 2.265625 -0.75 C 1.710938 -1.414062 1.4375 -2.382812 1.4375 -3.65625 Z M 5.265625 -9.484375 Z M 5.265625 -9.484375 "
           id="path41" />
      </symbol>
      <symbol
         overflow="visible"
         id="glyph0-14">
        <path
           style="stroke:none;"
           d="M 7.6875 -4.734375 C 7.6875 -5.835938 7.457031 -6.691406 7 -7.296875 C 6.550781 -7.910156 5.914062 -8.21875 5.09375 -8.21875 C 4.28125 -8.21875 3.644531 -7.910156 3.1875 -7.296875 C 2.726562 -6.691406 2.5 -5.835938 2.5 -4.734375 C 2.5 -3.640625 2.726562 -2.789062 3.1875 -2.1875 C 3.644531 -1.582031 4.28125 -1.28125 5.09375 -1.28125 C 5.914062 -1.28125 6.550781 -1.582031 7 -2.1875 C 7.457031 -2.789062 7.6875 -3.640625 7.6875 -4.734375 Z M 9.21875 -1.15625 C 9.21875 0.425781 8.863281 1.597656 8.15625 2.359375 C 7.457031 3.128906 6.390625 3.515625 4.953125 3.515625 C 4.410156 3.515625 3.898438 3.472656 3.421875 3.390625 C 2.953125 3.316406 2.492188 3.195312 2.046875 3.03125 L 2.046875 1.5625 C 2.492188 1.800781 2.9375 1.976562 3.375 2.09375 C 3.8125 2.207031 4.253906 2.265625 4.703125 2.265625 C 5.703125 2.265625 6.445312 2.003906 6.9375 1.484375 C 7.4375 0.960938 7.6875 0.175781 7.6875 -0.875 L 7.6875 -1.625 C 7.375 -1.082031 6.972656 -0.675781 6.484375 -0.40625 C 5.992188 -0.132812 5.40625 0 4.71875 0 C 3.582031 0 2.664062 -0.429688 1.96875 -1.296875 C 1.28125 -2.160156 0.9375 -3.304688 0.9375 -4.734375 C 0.9375 -6.171875 1.28125 -7.320312 1.96875 -8.1875 C 2.664062 -9.050781 3.582031 -9.484375 4.71875 -9.484375 C 5.40625 -9.484375 5.992188 -9.347656 6.484375 -9.078125 C 6.972656 -8.804688 7.375 -8.398438 7.6875 -7.859375 L 7.6875 -9.265625 L 9.21875 -9.265625 Z M 9.21875 -1.15625 "
           id="path44" />
      </symbol>
      <symbol
         overflow="visible"
         id="glyph0-15">
        <path
           style="stroke:none;"
           d="M 3.328125 -10.96875 L 3.328125 -1.375 L 5.34375 -1.375 C 7.050781 -1.375 8.300781 -1.757812 9.09375 -2.53125 C 9.882812 -3.300781 10.28125 -4.519531 10.28125 -6.1875 C 10.28125 -7.84375 9.882812 -9.050781 9.09375 -9.8125 C 8.300781 -10.582031 7.050781 -10.96875 5.34375 -10.96875 Z M 1.65625 -12.34375 L 5.09375 -12.34375 C 7.488281 -12.34375 9.242188 -11.84375 10.359375 -10.84375 C 11.484375 -9.851562 12.046875 -8.300781 12.046875 -6.1875 C 12.046875 -4.0625 11.484375 -2.5 10.359375 -1.5 C 9.234375 -0.5 7.476562 0 5.09375 0 L 1.65625 0 Z M 1.65625 -12.34375 "
           id="path47" />
      </symbol>
      <symbol
         overflow="visible"
         id="glyph0-16">
        <path
           style="stroke:none;"
           d="M 8.265625 -8.90625 L 8.265625 -7.484375 C 7.828125 -7.722656 7.390625 -7.898438 6.953125 -8.015625 C 6.523438 -8.140625 6.09375 -8.203125 5.65625 -8.203125 C 4.664062 -8.203125 3.894531 -7.882812 3.34375 -7.25 C 2.800781 -6.625 2.53125 -5.75 2.53125 -4.625 C 2.53125 -3.488281 2.800781 -2.609375 3.34375 -1.984375 C 3.894531 -1.359375 4.664062 -1.046875 5.65625 -1.046875 C 6.09375 -1.046875 6.523438 -1.101562 6.953125 -1.21875 C 7.390625 -1.34375 7.828125 -1.523438 8.265625 -1.765625 L 8.265625 -0.359375 C 7.835938 -0.160156 7.394531 -0.015625 6.9375 0.078125 C 6.488281 0.179688 6.003906 0.234375 5.484375 0.234375 C 4.097656 0.234375 2.992188 -0.203125 2.171875 -1.078125 C 1.347656 -1.953125 0.9375 -3.132812 0.9375 -4.625 C 0.9375 -6.132812 1.347656 -7.320312 2.171875 -8.1875 C 3.003906 -9.050781 4.144531 -9.484375 5.59375 -9.484375 C 6.0625 -9.484375 6.519531 -9.4375 6.96875 -9.34375 C 7.414062 -9.25 7.847656 -9.101562 8.265625 -8.90625 Z M 8.265625 -8.90625 "
           id="path50" />
      </symbol>
      <symbol
         overflow="visible"
         id="glyph0-17">
        <path
           style="stroke:none;"
           d="M 5.390625 -11.25 C 4.523438 -11.25 3.875 -10.820312 3.4375 -9.96875 C 3.007812 -9.125 2.796875 -7.851562 2.796875 -6.15625 C 2.796875 -4.46875 3.007812 -3.195312 3.4375 -2.34375 C 3.875 -1.5 4.523438 -1.078125 5.390625 -1.078125 C 6.253906 -1.078125 6.898438 -1.5 7.328125 -2.34375 C 7.765625 -3.195312 7.984375 -4.46875 7.984375 -6.15625 C 7.984375 -7.851562 7.765625 -9.125 7.328125 -9.96875 C 6.898438 -10.820312 6.253906 -11.25 5.390625 -11.25 Z M 5.390625 -12.578125 C 6.765625 -12.578125 7.816406 -12.023438 8.546875 -10.921875 C 9.285156 -9.828125 9.65625 -8.238281 9.65625 -6.15625 C 9.65625 -4.082031 9.285156 -2.5 8.546875 -1.40625 C 7.816406 -0.3125 6.765625 0.234375 5.390625 0.234375 C 4.003906 0.234375 2.941406 -0.3125 2.203125 -1.40625 C 1.472656 -2.5 1.109375 -4.082031 1.109375 -6.15625 C 1.109375 -8.238281 1.472656 -9.828125 2.203125 -10.921875 C 2.941406 -12.023438 4.003906 -12.578125 5.390625 -12.578125 Z M 5.390625 -12.578125 "
           id="path53" />
      </symbol>
      <symbol
         overflow="visible"
         id="glyph0-18">
        <path
           style="stroke:none;"
           d="M 2.09375 -1.40625 L 4.828125 -1.40625 L 4.828125 -10.828125 L 1.859375 -10.234375 L 1.859375 -11.75 L 4.8125 -12.34375 L 6.484375 -12.34375 L 6.484375 -1.40625 L 9.21875 -1.40625 L 9.21875 0 L 2.09375 0 Z M 2.09375 -1.40625 "
           id="path56" />
      </symbol>
      <symbol
         overflow="visible"
         id="glyph0-19">
        <path
           style="stroke:none;"
           d=""
           id="path59" />
      </symbol>
      <symbol
         overflow="visible"
         id="glyph0-20">
        <path
           style="stroke:none;"
           d="M 1.8125 -2.09375 L 3.5625 -2.09375 L 3.5625 0 L 1.8125 0 Z M 1.8125 -2.09375 "
           id="path62" />
      </symbol>
      <symbol
         overflow="visible"
         id="glyph0-21">
        <path
           style="stroke:none;"
           d="M 9.0625 -11.9375 L 9.0625 -10.3125 C 8.425781 -10.613281 7.828125 -10.835938 7.265625 -10.984375 C 6.703125 -11.140625 6.160156 -11.21875 5.640625 -11.21875 C 4.734375 -11.21875 4.03125 -11.039062 3.53125 -10.6875 C 3.039062 -10.332031 2.796875 -9.832031 2.796875 -9.1875 C 2.796875 -8.632812 2.957031 -8.21875 3.28125 -7.9375 C 3.613281 -7.664062 4.238281 -7.441406 5.15625 -7.265625 L 6.15625 -7.0625 C 7.40625 -6.820312 8.328125 -6.398438 8.921875 -5.796875 C 9.515625 -5.203125 9.8125 -4.40625 9.8125 -3.40625 C 9.8125 -2.207031 9.410156 -1.300781 8.609375 -0.6875 C 7.804688 -0.0703125 6.628906 0.234375 5.078125 0.234375 C 4.492188 0.234375 3.867188 0.164062 3.203125 0.03125 C 2.546875 -0.09375 1.867188 -0.285156 1.171875 -0.546875 L 1.171875 -2.265625 C 1.847656 -1.890625 2.507812 -1.601562 3.15625 -1.40625 C 3.8125 -1.207031 4.453125 -1.109375 5.078125 -1.109375 C 6.035156 -1.109375 6.769531 -1.296875 7.28125 -1.671875 C 7.800781 -2.046875 8.0625 -2.582031 8.0625 -3.28125 C 8.0625 -3.882812 7.875 -4.359375 7.5 -4.703125 C 7.132812 -5.046875 6.523438 -5.300781 5.671875 -5.46875 L 4.65625 -5.671875 C 3.40625 -5.921875 2.5 -6.3125 1.9375 -6.84375 C 1.382812 -7.375 1.109375 -8.109375 1.109375 -9.046875 C 1.109375 -10.140625 1.492188 -11 2.265625 -11.625 C 3.035156 -12.257812 4.097656 -12.578125 5.453125 -12.578125 C 6.023438 -12.578125 6.613281 -12.519531 7.21875 -12.40625 C 7.820312 -12.300781 8.4375 -12.144531 9.0625 -11.9375 Z M 9.0625 -11.9375 "
           id="path65" />
      </symbol>
      <symbol
         overflow="visible"
         id="glyph0-22">
        <path
           style="stroke:none;"
           d="M 3.0625 -1.390625 L 3.0625 3.515625 L 1.53125 3.515625 L 1.53125 -9.265625 L 3.0625 -9.265625 L 3.0625 -7.859375 C 3.382812 -8.410156 3.789062 -8.816406 4.28125 -9.078125 C 4.769531 -9.347656 5.351562 -9.484375 6.03125 -9.484375 C 7.15625 -9.484375 8.066406 -9.035156 8.765625 -8.140625 C 9.472656 -7.253906 9.828125 -6.082031 9.828125 -4.625 C 9.828125 -3.164062 9.472656 -1.988281 8.765625 -1.09375 C 8.066406 -0.207031 7.15625 0.234375 6.03125 0.234375 C 5.351562 0.234375 4.769531 0.101562 4.28125 -0.15625 C 3.789062 -0.425781 3.382812 -0.835938 3.0625 -1.390625 Z M 8.25 -4.625 C 8.25 -5.738281 8.015625 -6.613281 7.546875 -7.25 C 7.085938 -7.894531 6.457031 -8.21875 5.65625 -8.21875 C 4.851562 -8.21875 4.21875 -7.894531 3.75 -7.25 C 3.289062 -6.613281 3.0625 -5.738281 3.0625 -4.625 C 3.0625 -3.5 3.289062 -2.617188 3.75 -1.984375 C 4.21875 -1.347656 4.851562 -1.03125 5.65625 -1.03125 C 6.457031 -1.03125 7.085938 -1.347656 7.546875 -1.984375 C 8.015625 -2.617188 8.25 -3.5 8.25 -4.625 Z M 8.25 -4.625 "
           id="path68" />
      </symbol>
      <symbol
         overflow="visible"
         id="glyph0-23">
        <path
           style="stroke:none;"
           d="M 9.296875 -5.59375 L 9.296875 0 L 7.78125 0 L 7.78125 -5.546875 C 7.78125 -6.421875 7.609375 -7.070312 7.265625 -7.5 C 6.921875 -7.9375 6.40625 -8.15625 5.71875 -8.15625 C 4.894531 -8.15625 4.242188 -7.894531 3.765625 -7.375 C 3.296875 -6.851562 3.0625 -6.140625 3.0625 -5.234375 L 3.0625 0 L 1.53125 0 L 1.53125 -12.875 L 3.0625 -12.875 L 3.0625 -7.828125 C 3.425781 -8.378906 3.851562 -8.789062 4.34375 -9.0625 C 4.84375 -9.34375 5.414062 -9.484375 6.0625 -9.484375 C 7.125 -9.484375 7.925781 -9.15625 8.46875 -8.5 C 9.019531 -7.84375 9.296875 -6.875 9.296875 -5.59375 Z M 9.296875 -5.59375 "
           id="path71" />
      </symbol>
      <symbol
         overflow="visible"
         id="glyph0-24">
        <path
           style="stroke:none;"
           d="M 1.65625 -12.34375 L 3.328125 -12.34375 L 3.328125 -7.125 L 8.875 -12.34375 L 11.03125 -12.34375 L 4.890625 -6.59375 L 11.46875 0 L 9.265625 0 L 3.328125 -5.953125 L 3.328125 0 L 1.65625 0 Z M 1.65625 -12.34375 "
           id="path74" />
      </symbol>
      <symbol
         overflow="visible"
         id="glyph0-25">
        <path
           style="stroke:none;"
           d="M 1.53125 -12.875 L 3.0625 -12.875 L 3.0625 -5.265625 L 7.609375 -9.265625 L 9.546875 -9.265625 L 4.640625 -4.921875 L 9.765625 0 L 7.78125 0 L 3.0625 -4.53125 L 3.0625 0 L 1.53125 0 Z M 1.53125 -12.875 "
           id="path77" />
      </symbol>
      <symbol
         overflow="visible"
         id="glyph0-26">
        <path
           style="stroke:none;"
           d="M 7.5 -8.984375 L 7.5 -7.546875 C 7.070312 -7.765625 6.625 -7.929688 6.15625 -8.046875 C 5.695312 -8.160156 5.21875 -8.21875 4.71875 -8.21875 C 3.96875 -8.21875 3.398438 -8.097656 3.015625 -7.859375 C 2.640625 -7.628906 2.453125 -7.285156 2.453125 -6.828125 C 2.453125 -6.472656 2.585938 -6.191406 2.859375 -5.984375 C 3.128906 -5.785156 3.671875 -5.597656 4.484375 -5.421875 L 5.015625 -5.296875 C 6.085938 -5.066406 6.851562 -4.738281 7.3125 -4.3125 C 7.769531 -3.894531 8 -3.3125 8 -2.5625 C 8 -1.695312 7.65625 -1.015625 6.96875 -0.515625 C 6.289062 -0.015625 5.359375 0.234375 4.171875 0.234375 C 3.671875 0.234375 3.148438 0.1875 2.609375 0.09375 C 2.078125 0 1.515625 -0.144531 0.921875 -0.34375 L 0.921875 -1.90625 C 1.484375 -1.613281 2.035156 -1.394531 2.578125 -1.25 C 3.128906 -1.101562 3.671875 -1.03125 4.203125 -1.03125 C 4.921875 -1.03125 5.472656 -1.148438 5.859375 -1.390625 C 6.242188 -1.640625 6.4375 -1.988281 6.4375 -2.4375 C 6.4375 -2.851562 6.296875 -3.171875 6.015625 -3.390625 C 5.734375 -3.609375 5.125 -3.820312 4.1875 -4.03125 L 3.65625 -4.15625 C 2.707031 -4.351562 2.023438 -4.65625 1.609375 -5.0625 C 1.191406 -5.476562 0.984375 -6.039062 0.984375 -6.75 C 0.984375 -7.625 1.289062 -8.296875 1.90625 -8.765625 C 2.53125 -9.242188 3.410156 -9.484375 4.546875 -9.484375 C 5.109375 -9.484375 5.632812 -9.441406 6.125 -9.359375 C 6.625 -9.273438 7.082031 -9.148438 7.5 -8.984375 Z M 7.5 -8.984375 "
           id="path80" />
      </symbol>
      <symbol
         overflow="visible"
         id="glyph0-27">
        <path
           style="stroke:none;"
           d="M 3.328125 -5.890625 L 3.328125 -1.375 L 6.015625 -1.375 C 6.910156 -1.375 7.570312 -1.554688 8 -1.921875 C 8.4375 -2.296875 8.65625 -2.867188 8.65625 -3.640625 C 8.65625 -4.410156 8.4375 -4.976562 8 -5.34375 C 7.570312 -5.707031 6.910156 -5.890625 6.015625 -5.890625 Z M 3.328125 -10.96875 L 3.328125 -7.25 L 5.8125 -7.25 C 6.625 -7.25 7.226562 -7.398438 7.625 -7.703125 C 8.03125 -8.015625 8.234375 -8.484375 8.234375 -9.109375 C 8.234375 -9.734375 8.03125 -10.195312 7.625 -10.5 C 7.226562 -10.8125 6.625 -10.96875 5.8125 -10.96875 Z M 1.65625 -12.34375 L 5.9375 -12.34375 C 7.207031 -12.34375 8.1875 -12.078125 8.875 -11.546875 C 9.5625 -11.023438 9.90625 -10.273438 9.90625 -9.296875 C 9.90625 -8.535156 9.726562 -7.929688 9.375 -7.484375 C 9.019531 -7.046875 8.503906 -6.769531 7.828125 -6.65625 C 8.648438 -6.476562 9.285156 -6.109375 9.734375 -5.546875 C 10.191406 -4.992188 10.421875 -4.296875 10.421875 -3.453125 C 10.421875 -2.347656 10.046875 -1.492188 9.296875 -0.890625 C 8.546875 -0.296875 7.476562 0 6.09375 0 L 1.65625 0 Z M 1.65625 -12.34375 "
           id="path83" />
      </symbol>
    </g>
  </defs>
  <path
     inkscape:connector-curvature="0"
     id="path92"
     d="M 1.1015625,241.10156 H 601.10156 v 120 H 1.1015625 Z m 0,0"
     style="fill:#e3e3e3;fill-opacity:1;fill-rule:evenodd;stroke:#000000;stroke-width:1;stroke-linecap:butt;stroke-linejoin:miter;stroke-miterlimit:10;stroke-opacity:1" />
  <path
     inkscape:connector-curvature="0"
     id="path94"
     d="M 1.1015625,1.1015625 H 161.10156 V 41.10156 H 1.1015625 Z m 0,0"
     style="fill:none;stroke:#000000;stroke-width:1;stroke-linecap:butt;stroke-linejoin:miter;stroke-miterlimit:10;stroke-opacity:1" />
  <g
     id="g118"
     style="fill:#000000;fill-opacity:1">
    <use
       height="100%"
       width="100%"
       id="use96"
       y="26.741482"
       x="32.097656"
       xlink:href="#glyph0-1" />
    <use
       height="100%"
       width="100%"
       id="use98"
       y="26.741482"
       x="37.091686"
       xlink:href="#glyph0-2" />
    <use
       height="100%"
       width="100%"
       id="use100"
       y="26.741482"
       x="47.824108"
       xlink:href="#glyph0-3" />
    <use
       height="100%"
       width="100%"
       id="use102"
       y="26.741482"
       x="53.78548"
       xlink:href="#glyph0-4" />
    <use
       height="100%"
       width="100%"
       id="use104"
       y="26.741482"
       x="64.145721"
       xlink:href="#glyph0-5" />
    <use
       height="100%"
       width="100%"
       id="use106"
       y="26.741482"
       x="70.809952"
       xlink:href="#glyph0-6" />
    <use
       height="100%"
       width="100%"
       id="use108"
       y="26.741482"
       x="87.30545"
       xlink:href="#glyph0-7" />
    <use
       height="100%"
       width="100%"
       id="use110"
       y="26.741482"
       x="97.682236"
       xlink:href="#glyph0-8" />
    <use
       height="100%"
       width="100%"
       id="use112"
       y="26.741482"
       x="104.32178"
       xlink:href="#glyph0-9" />
    <use
       height="100%"
       width="100%"
       id="use114"
       y="26.741482"
       x="109.02637"
       xlink:href="#glyph0-4" />
    <use
       height="100%"
       width="100%"
       id="use116"
       y="26.741482"
       x="119.38661"
       xlink:href="#glyph0-2" />
  </g>
  <path
     inkscape:connector-curvature="0"
     id="path120"
     d="m 441.10156,1.1015625 h 160 V 41.10156 h -160 z m 0,0"
     style="fill:none;stroke:#000000;stroke-width:1;stroke-linecap:butt;stroke-linejoin:miter;stroke-miterlimit:10;stroke-opacity:1" />
  <g
     id="g144"
     style="fill:#000000;fill-opacity:1">
    <use
       height="100%"
       width="100%"
       id="use122"
       y="26.741482"
       x="472.09766"
       xlink:href="#glyph0-1" />
    <use
       height="100%"
       width="100%"
       id="use124"
       y="26.741482"
       x="477.09167"
       xlink:href="#glyph0-2" />
    <use
       height="100%"
       width="100%"
       id="use126"
       y="26.741482"
       x="487.8241"
       xlink:href="#glyph0-3" />
    <use
       height="100%"
       width="100%"
       id="use128"
       y="26.741482"
       x="493.78549"
       xlink:href="#glyph0-4" />
    <use
       height="100%"
       width="100%"
       id="use130"
       y="26.741482"
       x="504.14572"
       xlink:href="#glyph0-5" />
    <use
       height="100%"
       width="100%"
       id="use132"
       y="26.741482"
       x="510.80994"
       xlink:href="#glyph0-6" />
    <use
       height="100%"
       width="100%"
       id="use134"
       y="26.741482"
       x="527.30542"
       xlink:href="#glyph0-7" />
    <use
       height="100%"
       width="100%"
       id="use136"
       y="26.741482"
       x="537.68225"
       xlink:href="#glyph0-8" />
    <use
       height="100%"
       width="100%"
       id="use138"
       y="26.741482"
       x="544.32178"
       xlink:href="#glyph0-9" />
    <use
       height="100%"
       width="100%"
       id="use140"
       y="26.741482"
       x="549.02637"
       xlink:href="#glyph0-4" />
    <use
       height="100%"
       width="100%"
       id="use142"
       y="26.741482"
       x="559.3866"
       xlink:href="#glyph0-2" />
  </g>
  <path
     inkscape:connector-curvature="0"
     id="path146"
     d="M 81.10156,41.10156 V 73.375"
     style="fill:none;stroke:#000000;stroke-width:1;stroke-linecap:butt;stroke-linejoin:miter;stroke-miterlimit:10;stroke-opacity:1" />
  <path
     inkscape:connector-curvature="0"
     id="path148"
     d="m 81.10156,80.875 -5,-10 5,2.5 5,-2.5 z m 0,0"
     style="fill:#000000;fill-opacity:1;fill-rule:evenodd;stroke:#000000;stroke-width:1;stroke-linecap:butt;stroke-linejoin:miter;stroke-miterlimit:10;stroke-opacity:1" />
  <g
     id="g168"
     style="fill:#000000;fill-opacity:1">
    <use
       height="100%"
       width="100%"
       id="use150"
       y="66.991486"
       x="101.10156"
       xlink:href="#glyph0-10" />
    <use
       height="100%"
       width="100%"
       id="use152"
       y="66.991486"
       x="112.92529"
       xlink:href="#glyph0-4" />
    <use
       height="100%"
       width="100%"
       id="use154"
       y="66.991486"
       x="123.28554"
       xlink:href="#glyph0-11" />
    <use
       height="100%"
       width="100%"
       id="use156"
       y="66.991486"
       x="134.0345"
       xlink:href="#glyph0-9" />
    <use
       height="100%"
       width="100%"
       id="use158"
       y="66.991486"
       x="138.73909"
       xlink:href="#glyph0-12" />
    <use
       height="100%"
       width="100%"
       id="use160"
       y="66.991486"
       x="149.15712"
       xlink:href="#glyph0-5" />
    <use
       height="100%"
       width="100%"
       id="use162"
       y="66.991486"
       x="156.1192"
       xlink:href="#glyph0-13" />
    <use
       height="100%"
       width="100%"
       id="use164"
       y="66.991486"
       x="166.85162"
       xlink:href="#glyph0-2" />
    <use
       height="100%"
       width="100%"
       id="use166"
       y="66.991486"
       x="177.58405"
       xlink:href="#glyph0-14" />
  </g>
  <path
     inkscape:connector-curvature="0"
     id="path170"
     d="M 521.10156,81.10156 V 48.82422"
     style="fill:none;stroke:#000000;stroke-width:1;stroke-linecap:butt;stroke-linejoin:miter;stroke-miterlimit:10;stroke-opacity:1" />
  <path
     inkscape:connector-curvature="0"
     id="path172"
     d="m 521.10156,41.32422 5,10 -5,-2.5 -5,2.5 z m 0,0"
     style="fill:#000000;fill-opacity:1;fill-rule:evenodd;stroke:#000000;stroke-width:1;stroke-linecap:butt;stroke-linejoin:miter;stroke-miterlimit:10;stroke-opacity:1" />
  <g
     id="g196"
     style="fill:#000000;fill-opacity:1">
    <use
       height="100%"
       width="100%"
       id="use174"
       y="66.991486"
       x="392.9375"
       xlink:href="#glyph0-15" />
    <use
       height="100%"
       width="100%"
       id="use176"
       y="66.991486"
       x="405.97678"
       xlink:href="#glyph0-12" />
    <use
       height="100%"
       width="100%"
       id="use178"
       y="66.991486"
       x="416.39481"
       xlink:href="#glyph0-16" />
    <use
       height="100%"
       width="100%"
       id="use180"
       y="66.991486"
       x="425.70496"
       xlink:href="#glyph0-4" />
    <use
       height="100%"
       width="100%"
       id="use182"
       y="66.991486"
       x="436.06522"
       xlink:href="#glyph0-11" />
    <use
       height="100%"
       width="100%"
       id="use184"
       y="66.991486"
       x="446.81418"
       xlink:href="#glyph0-9" />
    <use
       height="100%"
       width="100%"
       id="use186"
       y="66.991486"
       x="451.51877"
       xlink:href="#glyph0-12" />
    <use
       height="100%"
       width="100%"
       id="use188"
       y="66.991486"
       x="461.9368"
       xlink:href="#glyph0-5" />
    <use
       height="100%"
       width="100%"
       id="use190"
       y="66.991486"
       x="468.89886"
       xlink:href="#glyph0-13" />
    <use
       height="100%"
       width="100%"
       id="use192"
       y="66.991486"
       x="479.63129"
       xlink:href="#glyph0-2" />
    <use
       height="100%"
       width="100%"
       id="use194"
       y="66.991486"
       x="490.36371"
       xlink:href="#glyph0-14" />
  </g>
  <g
     id="g258"
     style="fill:#000000;fill-opacity:1">
    <use
       height="100%"
       width="100%"
       id="use198"
       y="266.74149"
       x="155.67188"
       xlink:href="#glyph0-17" />
    <use
       height="100%"
       width="100%"
       id="use200"
       y="266.74149"
       x="166.44553"
       xlink:href="#glyph0-18" />
    <use
       height="100%"
       width="100%"
       id="use202"
       y="266.74149"
       x="177.21918"
       xlink:href="#glyph0-18" />
    <use
       height="100%"
       width="100%"
       id="use204"
       y="266.74149"
       x="187.99284"
       xlink:href="#glyph0-17" />
    <use
       height="100%"
       width="100%"
       id="use206"
       y="266.74149"
       x="198.76649"
       xlink:href="#glyph0-17" />
    <use
       height="100%"
       width="100%"
       id="use208"
       y="266.74149"
       x="209.54015"
       xlink:href="#glyph0-17" />
    <use
       height="100%"
       width="100%"
       id="use210"
       y="266.74149"
       x="220.3138"
       xlink:href="#glyph0-17" />
    <use
       height="100%"
       width="100%"
       id="use212"
       y="266.74149"
       x="231.08746"
       xlink:href="#glyph0-18" />
    <use
       height="100%"
       width="100%"
       id="use214"
       y="266.74149"
       x="241.86111"
       xlink:href="#glyph0-19" />
    <use
       height="100%"
       width="100%"
       id="use216"
       y="266.74149"
       x="247.24387"
       xlink:href="#glyph0-18" />
    <use
       height="100%"
       width="100%"
       id="use218"
       y="266.74149"
       x="258.01752"
       xlink:href="#glyph0-18" />
    <use
       height="100%"
       width="100%"
       id="use220"
       y="266.74149"
       x="268.79117"
       xlink:href="#glyph0-18" />
    <use
       height="100%"
       width="100%"
       id="use222"
       y="266.74149"
       x="279.56482"
       xlink:href="#glyph0-17" />
    <use
       height="100%"
       width="100%"
       id="use224"
       y="266.74149"
       x="290.3385"
       xlink:href="#glyph0-17" />
    <use
       height="100%"
       width="100%"
       id="use226"
       y="266.74149"
       x="301.11215"
       xlink:href="#glyph0-18" />
    <use
       height="100%"
       width="100%"
       id="use228"
       y="266.74149"
       x="311.8858"
       xlink:href="#glyph0-17" />
    <use
       height="100%"
       width="100%"
       id="use230"
       y="266.74149"
       x="322.65945"
       xlink:href="#glyph0-18" />
    <use
       height="100%"
       width="100%"
       id="use232"
       y="266.74149"
       x="333.43311"
       xlink:href="#glyph0-19" />
    <use
       height="100%"
       width="100%"
       id="use234"
       y="266.74149"
       x="338.81586"
       xlink:href="#glyph0-17" />
    <use
       height="100%"
       width="100%"
       id="use236"
       y="266.74149"
       x="349.58951"
       xlink:href="#glyph0-18" />
    <use
       height="100%"
       width="100%"
       id="use238"
       y="266.74149"
       x="360.36316"
       xlink:href="#glyph0-18" />
    <use
       height="100%"
       width="100%"
       id="use240"
       y="266.74149"
       x="371.13684"
       xlink:href="#glyph0-17" />
    <use
       height="100%"
       width="100%"
       id="use242"
       y="266.74149"
       x="381.91049"
       xlink:href="#glyph0-18" />
    <use
       height="100%"
       width="100%"
       id="use244"
       y="266.74149"
       x="392.68414"
       xlink:href="#glyph0-17" />
    <use
       height="100%"
       width="100%"
       id="use246"
       y="266.74149"
       x="403.45779"
       xlink:href="#glyph0-18" />
    <use
       height="100%"
       width="100%"
       id="use248"
       y="266.74149"
       x="414.23145"
       xlink:href="#glyph0-17" />
    <use
       height="100%"
       width="100%"
       id="use250"
       y="266.74149"
       x="425.0051"
       xlink:href="#glyph0-19" />
    <use
       height="100%"
       width="100%"
       id="use252"
       y="266.74149"
       x="430.38785"
       xlink:href="#glyph0-20" />
    <use
       height="100%"
       width="100%"
       id="use254"
       y="266.74149"
       x="435.77063"
       xlink:href="#glyph0-20" />
    <use
       height="100%"
       width="100%"
       id="use256"
       y="266.74149"
       x="441.15338"
       xlink:href="#glyph0-20" />
  </g>
  <g
     id="g288"
     style="fill:#000000;fill-opacity:1">
    <use
       height="100%"
       width="100%"
       id="use260"
       y="316.40555"
       x="229.44141"
       xlink:href="#glyph0-21" />
    <use
       height="100%"
       width="100%"
       id="use262"
       y="316.40555"
       x="240.19037"
       xlink:href="#glyph0-22" />
    <use
       height="100%"
       width="100%"
       id="use264"
       y="316.40555"
       x="250.93935"
       xlink:href="#glyph0-12" />
    <use
       height="100%"
       width="100%"
       id="use266"
       y="316.40555"
       x="261.35736"
       xlink:href="#glyph0-9" />
    <use
       height="100%"
       width="100%"
       id="use268"
       y="316.40555"
       x="266.06195"
       xlink:href="#glyph0-16" />
    <use
       height="100%"
       width="100%"
       id="use270"
       y="316.40555"
       x="275.37213"
       xlink:href="#glyph0-23" />
    <use
       height="100%"
       width="100%"
       id="use272"
       y="316.40555"
       x="286.10455"
       xlink:href="#glyph0-12" />
    <use
       height="100%"
       width="100%"
       id="use274"
       y="316.40555"
       x="296.52258"
       xlink:href="#glyph0-5" />
    <use
       height="100%"
       width="100%"
       id="use276"
       y="316.40555"
       x="303.1868"
       xlink:href="#glyph0-6" />
    <use
       height="100%"
       width="100%"
       id="use278"
       y="316.40555"
       x="319.68228"
       xlink:href="#glyph0-12" />
    <use
       height="100%"
       width="100%"
       id="use280"
       y="316.40555"
       x="330.10031"
       xlink:href="#glyph0-11" />
    <use
       height="100%"
       width="100%"
       id="use282"
       y="316.40555"
       x="340.84927"
       xlink:href="#glyph0-9" />
    <use
       height="100%"
       width="100%"
       id="use284"
       y="316.40555"
       x="345.55386"
       xlink:href="#glyph0-13" />
    <use
       height="100%"
       width="100%"
       id="use286"
       y="316.40555"
       x="356.28629"
       xlink:href="#glyph0-6" />
  </g>
  <g
     id="g330"
     style="fill:#000000;fill-opacity:1">
    <use
       height="100%"
       width="100%"
       id="use290"
       y="337.57352"
       x="195.84766"
       xlink:href="#glyph0-24" />
    <use
       height="100%"
       width="100%"
       id="use292"
       y="337.57352"
       x="206.10834"
       xlink:href="#glyph0-4" />
    <use
       height="100%"
       width="100%"
       id="use294"
       y="337.57352"
       x="216.46858"
       xlink:href="#glyph0-6" />
    <use
       height="100%"
       width="100%"
       id="use296"
       y="337.57352"
       x="232.96408"
       xlink:href="#glyph0-6" />
    <use
       height="100%"
       width="100%"
       id="use298"
       y="337.57352"
       x="249.45958"
       xlink:href="#glyph0-13" />
    <use
       height="100%"
       width="100%"
       id="use300"
       y="337.57352"
       x="260.19202"
       xlink:href="#glyph0-2" />
    <use
       height="100%"
       width="100%"
       id="use302"
       y="337.57352"
       x="270.92444"
       xlink:href="#glyph0-9" />
    <use
       height="100%"
       width="100%"
       id="use304"
       y="337.57352"
       x="275.62903"
       xlink:href="#glyph0-25" />
    <use
       height="100%"
       width="100%"
       id="use306"
       y="337.57352"
       x="285.13748"
       xlink:href="#glyph0-7" />
    <use
       height="100%"
       width="100%"
       id="use308"
       y="337.57352"
       x="295.51428"
       xlink:href="#glyph0-8" />
    <use
       height="100%"
       width="100%"
       id="use310"
       y="337.57352"
       x="302.15381"
       xlink:href="#glyph0-9" />
    <use
       height="100%"
       width="100%"
       id="use312"
       y="337.57352"
       x="306.8584"
       xlink:href="#glyph0-4" />
    <use
       height="100%"
       width="100%"
       id="use314"
       y="337.57352"
       x="317.21863"
       xlink:href="#glyph0-2" />
    <use
       height="100%"
       width="100%"
       id="use316"
       y="337.57352"
       x="327.95105"
       xlink:href="#glyph0-26" />
    <use
       height="100%"
       width="100%"
       id="use318"
       y="337.57352"
       x="336.7735"
       xlink:href="#glyph0-6" />
    <use
       height="100%"
       width="100%"
       id="use320"
       y="337.57352"
       x="353.26898"
       xlink:href="#glyph0-12" />
    <use
       height="100%"
       width="100%"
       id="use322"
       y="337.57352"
       x="363.68701"
       xlink:href="#glyph0-11" />
    <use
       height="100%"
       width="100%"
       id="use324"
       y="337.57352"
       x="374.43597"
       xlink:href="#glyph0-9" />
    <use
       height="100%"
       width="100%"
       id="use326"
       y="337.57352"
       x="379.14056"
       xlink:href="#glyph0-13" />
    <use
       height="100%"
       width="100%"
       id="use328"
       y="337.57352"
       x="389.87299"
       xlink:href="#glyph0-6" />
  </g>
  <path
     inkscape:connector-curvature="0"
     id="path332"
     d="M 1.1015625,81.10156 H 161.10156 v 40 H 1.1015625 Z m 0,0"
     style="fill:none;stroke:#000000;stroke-width:1;stroke-linecap:butt;stroke-linejoin:miter;stroke-miterlimit:10;stroke-opacity:1" />
  <path
     inkscape:connector-curvature="0"
     id="path334"
     d="m 441.10156,81.10156 h 160 v 40 h -160 z m 0,0"
     style="fill:none;stroke:#000000;stroke-width:1;stroke-linecap:butt;stroke-linejoin:miter;stroke-miterlimit:10;stroke-opacity:1" />
  <path
     inkscape:connector-curvature="0"
     id="path336"
     d="M 1.1015625,161.10156 H 161.10156 v 40 H 1.1015625 Z m 0,0"
     style="fill:none;stroke:#000000;stroke-width:1;stroke-linecap:butt;stroke-linejoin:miter;stroke-miterlimit:10;stroke-opacity:1" />
  <path
     inkscape:connector-curvature="0"
     id="path338"
     d="m 81.10156,121.10156 v 32.16798"
     style="fill:none;stroke:#000000;stroke-width:1;stroke-linecap:butt;stroke-linejoin:miter;stroke-miterlimit:10;stroke-opacity:1" />
  <path
     inkscape:connector-curvature="0"
     id="path340"
     d="m 81.10156,160.76954 -5,-10 5,2.5 5,-2.5 z m 0,0"
     style="fill:#000000;fill-opacity:1;fill-rule:evenodd;stroke:#000000;stroke-width:1;stroke-linecap:butt;stroke-linejoin:miter;stroke-miterlimit:10;stroke-opacity:1" />
  <path
     inkscape:connector-curvature="0"
     id="path342"
     d="M 81.10156,201.10156 V 233.375"
     style="fill:none;stroke:#000000;stroke-width:1;stroke-linecap:butt;stroke-linejoin:miter;stroke-miterlimit:10;stroke-opacity:1" />
  <path
     inkscape:connector-curvature="0"
     id="path344"
     d="m 81.10156,240.875 -5,-10 5,2.5 5,-2.5 z m 0,0"
     style="fill:#000000;fill-opacity:1;fill-rule:evenodd;stroke:#000000;stroke-width:1;stroke-linecap:butt;stroke-linejoin:miter;stroke-miterlimit:10;stroke-opacity:1" />
  <g
     id="g364"
     style="fill:#000000;fill-opacity:1">
    <use
       height="100%"
       width="100%"
       id="use346"
       y="146.99149"
       x="101.10156"
       xlink:href="#glyph0-10" />
    <use
       height="100%"
       width="100%"
       id="use348"
       y="146.99149"
       x="112.92529"
       xlink:href="#glyph0-4" />
    <use
       height="100%"
       width="100%"
       id="use350"
       y="146.99149"
       x="123.28554"
       xlink:href="#glyph0-11" />
    <use
       height="100%"
       width="100%"
       id="use352"
       y="146.99149"
       x="134.0345"
       xlink:href="#glyph0-9" />
    <use
       height="100%"
       width="100%"
       id="use354"
       y="146.99149"
       x="138.73909"
       xlink:href="#glyph0-12" />
    <use
       height="100%"
       width="100%"
       id="use356"
       y="146.99149"
       x="149.15712"
       xlink:href="#glyph0-5" />
    <use
       height="100%"
       width="100%"
       id="use358"
       y="146.99149"
       x="156.1192"
       xlink:href="#glyph0-13" />
    <use
       height="100%"
       width="100%"
       id="use360"
       y="146.99149"
       x="166.85162"
       xlink:href="#glyph0-2" />
    <use
       height="100%"
       width="100%"
       id="use362"
       y="146.99149"
       x="177.58405"
       xlink:href="#glyph0-14" />
  </g>
  <path
     inkscape:connector-curvature="0"
     id="path366"
     d="m 441.10156,161.10156 h 160 v 40 h -160 z m 0,0"
     style="fill:none;stroke:#000000;stroke-width:1;stroke-linecap:butt;stroke-linejoin:miter;stroke-miterlimit:10;stroke-opacity:1" />
  <path
     inkscape:connector-curvature="0"
     id="path368"
     d="M 521.10156,161.10156 V 128.82422"
     style="fill:none;stroke:#000000;stroke-width:1;stroke-linecap:butt;stroke-linejoin:miter;stroke-miterlimit:10;stroke-opacity:1" />
  <path
     inkscape:connector-curvature="0"
     id="path370"
     d="m 521.10156,121.32422 5,10 -5,-2.5 -5,2.5 z m 0,0"
     style="fill:#000000;fill-opacity:1;fill-rule:evenodd;stroke:#000000;stroke-width:1;stroke-linecap:butt;stroke-linejoin:miter;stroke-miterlimit:10;stroke-opacity:1" />
  <g
     id="g394"
     style="fill:#000000;fill-opacity:1">
    <use
       height="100%"
       width="100%"
       id="use372"
       y="146.99149"
       x="392.9375"
       xlink:href="#glyph0-15" />
    <use
       height="100%"
       width="100%"
       id="use374"
       y="146.99149"
       x="405.97678"
       xlink:href="#glyph0-12" />
    <use
       height="100%"
       width="100%"
       id="use376"
       y="146.99149"
       x="416.39481"
       xlink:href="#glyph0-16" />
    <use
       height="100%"
       width="100%"
       id="use378"
       y="146.99149"
       x="425.70496"
       xlink:href="#glyph0-4" />
    <use
       height="100%"
       width="100%"
       id="use380"
       y="146.99149"
       x="436.06522"
       xlink:href="#glyph0-11" />
    <use
       height="100%"
       width="100%"
       id="use382"
       y="146.99149"
       x="446.81418"
       xlink:href="#glyph0-9" />
    <use
       height="100%"
       width="100%"
       id="use384"
       y="146.99149"
       x="451.51877"
       xlink:href="#glyph0-12" />
    <use
       height="100%"
       width="100%"
       id="use386"
       y="146.99149"
       x="461.9368"
       xlink:href="#glyph0-5" />
    <use
       height="100%"
       width="100%"
       id="use388"
       y="146.99149"
       x="468.89886"
       xlink:href="#glyph0-13" />
    <use
       height="100%"
       width="100%"
       id="use390"
       y="146.99149"
       x="479.63129"
       xlink:href="#glyph0-2" />
    <use
       height="100%"
       width="100%"
       id="use392"
       y="146.99149"
       x="490.36371"
       xlink:href="#glyph0-14" />
  </g>
  <path
     inkscape:connector-curvature="0"
     id="path396"
     d="M 521.10156,241.10156 V 208.82422"
     style="fill:none;stroke:#000000;stroke-width:1;stroke-linecap:butt;stroke-linejoin:miter;stroke-miterlimit:10;stroke-opacity:1" />
  <path
     inkscape:connector-curvature="0"
     id="path398"
     d="m 521.10156,201.32422 5,10 -5,-2.5 -5,2.5 z m 0,0"
     style="fill:#000000;fill-opacity:1;fill-rule:evenodd;stroke:#000000;stroke-width:1;stroke-linecap:butt;stroke-linejoin:miter;stroke-miterlimit:10;stroke-opacity:1" />
  <g
     id="g408"
     style="fill:#000000;fill-opacity:1">
    <use
       height="100%"
       width="100%"
       id="use400"
       y="226.74149"
       x="285.22266"
       xlink:href="#glyph0-27" />
    <use
       height="100%"
       width="100%"
       id="use402"
       y="226.74149"
       x="296.83969"
       xlink:href="#glyph0-9" />
    <use
       height="100%"
       width="100%"
       id="use404"
       y="226.74149"
       x="301.54428"
       xlink:href="#glyph0-8" />
    <use
       height="100%"
       width="100%"
       id="use406"
       y="226.74149"
       x="308.18381"
       xlink:href="#glyph0-26" />
  </g>
</svg>
