<?xml version="1.0" encoding="UTF-8" standalone="no"?>
<!-- Created with Inkscape (http://www.inkscape.org/) -->

<svg
   xmlns:dc="http://purl.org/dc/elements/1.1/"
   xmlns:cc="http://creativecommons.org/ns#"
   xmlns:rdf="http://www.w3.org/1999/02/22-rdf-syntax-ns#"
   xmlns:svg="http://www.w3.org/2000/svg"
   xmlns="http://www.w3.org/2000/svg"
   xmlns:sodipodi="http://sodipodi.sourceforge.net/DTD/sodipodi-0.dtd"
   xmlns:inkscape="http://www.inkscape.org/namespaces/inkscape"
   width="640"
   height="394.66666"
   id="svg2796"
   sodipodi:version="0.32"
   inkscape:version="0.92.1 r15371"
   sodipodi:docname="digital-signal.svg"
   inkscape:output_extension="org.inkscape.output.svg.inkscape"
   version="1.0">
  <defs
     id="defs2798">
    <inkscape:perspective
       sodipodi:type="inkscape:persp3d"
       inkscape:vp_x="0 : 186.66667 : 1"
       inkscape:vp_y="0 : 1066.6667 : 0"
       inkscape:vp_z="618.66667 : 186.66667 : 1"
       inkscape:persp3d-origin="309.33333 : 124.44445 : 1"
       id="perspective2575" />
  </defs>
  <sodipodi:namedview
     id="base"
     pagecolor="#ffffff"
     bordercolor="#666666"
     borderopacity="1.0"
     inkscape:pageopacity="0.0"
     inkscape:pageshadow="2"
     inkscape:zoom="2.01"
     inkscape:cx="241.17483"
     inkscape:cy="176.23319"
     inkscape:document-units="px"
     inkscape:current-layer="layer1"
     showgrid="false"
     inkscape:window-width="2481"
     inkscape:window-height="1356"
     inkscape:window-x="79"
     inkscape:window-y="27"
     inkscape:window-maximized="1">
    <inkscape:grid
       type="xygrid"
       id="grid3246"
       visible="true"
       enabled="true"
       originx="0"
       originy="0"
       spacingx="4.0314961"
       spacingy="4.0314961" />
  </sodipodi:namedview>
  <metadata
     id="metadata2801">
    <rdf:RDF>
      <cc:Work
         rdf:about="">
        <dc:format>image/svg+xml</dc:format>
        <dc:type
           rdf:resource="http://purl.org/dc/dcmitype/StillImage" />
        <dc:title></dc:title>
      </cc:Work>
    </rdf:RDF>
  </metadata>
  <g
     inkscape:label="Ebene 1"
     inkscape:groupmode="layer"
     id="layer1"
     transform="translate(-83.908677,-199.0335)">
    <path
       inkscape:connector-curvature="0"
       style="fill:none;fill-opacity:0;stroke:#000000;stroke-width:3.86666656"
       d="M 124.82765,542.7194 H 696.18183"
       id="line2653" />
    <path
       inkscape:connector-curvature="0"
       style="fill:none;fill-opacity:0;stroke:#000000;stroke-width:3.86666656"
       d="m 681.17138,552.3861 19.33333,-9.66667 -19.33333,-9.66666"
       id="polyline2655" />
    <path
       inkscape:connector-curvature="0"
       style="fill:none;fill-opacity:0;stroke:#000000;stroke-width:3.86666656"
       d="M 163.4943,581.38607 V 242.03197"
       id="line2657" />
    <path
       inkscape:connector-curvature="0"
       style="fill:none;fill-opacity:0;stroke:#000000;stroke-width:3.86666656"
       d="m 173.16098,257.04237 -9.66667,-19.33334 -9.66666,19.33334"
       id="polyline2659" />
    <path
       inkscape:connector-curvature="0"
       style="fill:none;fill-opacity:0;stroke:#000000;stroke-width:1.93333328;stroke-dasharray:7.73333333"
       d="M 163.4943,504.05274 H 666.16107"
       id="line2661" />
    <path
       inkscape:connector-curvature="0"
       style="fill:none;fill-opacity:0;stroke:#000000;stroke-width:1.93333328;stroke-dasharray:7.73333333"
       d="M 163.4943,465.38607 H 666.16107"
       id="line2663" />
    <path
       inkscape:connector-curvature="0"
       style="fill:none;fill-opacity:0;stroke:#000000;stroke-width:1.93333328;stroke-dasharray:7.73333333"
       d="M 163.4943,426.7194 H 666.16107"
       id="line2665" />
    <path
       inkscape:connector-curvature="0"
       style="fill:none;fill-opacity:0;stroke:#000000;stroke-width:1.93333328;stroke-dasharray:7.73333333"
       d="M 163.4943,388.05274 H 666.16107"
       id="line2667" />
    <path
       inkscape:connector-curvature="0"
       style="fill:none;fill-opacity:0;stroke:#000000;stroke-width:1.93333328;stroke-dasharray:7.73333333"
       d="M 163.4943,349.38607 H 666.16107"
       id="line2669" />
    <path
       inkscape:connector-curvature="0"
       style="fill:none;fill-opacity:0;stroke:#000000;stroke-width:1.93333328;stroke-dasharray:7.73333333"
       d="M 163.4943,310.7194 H 666.16107"
       id="line2671" />
    <path
       inkscape:connector-curvature="0"
       style="fill:none;fill-opacity:0;stroke:#000000;stroke-width:1.93333328;stroke-dasharray:7.73333333"
       d="M 163.4943,272.05274 H 666.16107"
       id="line2673" />
    <path
       inkscape:connector-curvature="0"
       style="fill:none;fill-opacity:0;stroke:#000000;stroke-width:1.93333328;stroke-dasharray:7.73333333"
       d="M 202.16097,542.7194 V 272.05274"
       id="line2675" />
    <path
       inkscape:connector-curvature="0"
       style="fill:none;fill-opacity:0;stroke:#000000;stroke-width:1.93333328;stroke-dasharray:7.73333333"
       d="M 240.82764,542.7194 V 272.05274"
       id="line2677" />
    <path
       inkscape:connector-curvature="0"
       style="fill:none;fill-opacity:0;stroke:#000000;stroke-width:1.93333328;stroke-dasharray:7.73333333"
       d="M 279.4943,542.7194 V 272.05274"
       id="line2679" />
    <path
       inkscape:connector-curvature="0"
       style="fill:none;fill-opacity:0;stroke:#000000;stroke-width:1.93333328;stroke-dasharray:7.73333333"
       d="M 318.16097,542.7194 V 272.05274"
       id="line2681" />
    <path
       inkscape:connector-curvature="0"
       style="fill:none;fill-opacity:0;stroke:#000000;stroke-width:1.93333328;stroke-dasharray:7.73333333"
       d="M 356.82764,542.7194 V 272.05274"
       id="line2683" />
    <path
       inkscape:connector-curvature="0"
       style="fill:none;fill-opacity:0;stroke:#000000;stroke-width:1.93333328;stroke-dasharray:7.73333333"
       d="M 395.49434,542.7194 V 272.05274"
       id="line2685" />
    <path
       inkscape:connector-curvature="0"
       style="fill:none;fill-opacity:0;stroke:#000000;stroke-width:1.93333328;stroke-dasharray:7.73333333"
       d="M 434.161,542.7194 V 272.05274"
       id="line2687" />
    <path
       inkscape:connector-curvature="0"
       style="fill:none;fill-opacity:0;stroke:#000000;stroke-width:1.93333328;stroke-dasharray:7.73333333"
       d="M 472.82767,542.7194 V 272.05274"
       id="line2689" />
    <path
       inkscape:connector-curvature="0"
       style="fill:none;fill-opacity:0;stroke:#000000;stroke-width:1.93333328;stroke-dasharray:7.73333333"
       d="M 511.49434,542.7194 V 272.05274"
       id="line2691" />
    <path
       inkscape:connector-curvature="0"
       style="fill:none;fill-opacity:0;stroke:#000000;stroke-width:1.93333328;stroke-dasharray:7.73333333"
       d="M 550.161,542.7194 V 272.05274"
       id="line2693" />
    <path
       inkscape:connector-curvature="0"
       style="fill:none;fill-opacity:0;stroke:#000000;stroke-width:1.93333328;stroke-dasharray:7.73333333"
       d="M 588.82773,542.7194 V 272.05274"
       id="line2695" />
    <path
       inkscape:connector-curvature="0"
       style="fill:none;fill-opacity:0;stroke:#000000;stroke-width:1.93333328;stroke-dasharray:7.73333333"
       d="M 627.4944,542.7194 V 272.05274"
       id="line2697" />
    <path
       inkscape:connector-curvature="0"
       style="fill:none;fill-opacity:0;stroke:#000000;stroke-width:1.93333328;stroke-dasharray:7.73333333"
       d="M 666.16107,542.7194 V 272.05274"
       id="line2699" />
    <path
       inkscape:connector-curvature="0"
       style="fill:none;fill-opacity:0;stroke:#333333;stroke-width:3.86666656"
       d="m 163.49433,542.71943 c 11.5536,0 38.66666,-347.99998 116,-154.66665 77.33333,193.33332 116,-270.66667 193.33333,-38.66667 77.33332,231.99999 115.99999,-77.33333 193.33332,77.33332"
       id="path2703" />
    <path
       inkscape:connector-curvature="0"
       sodipodi:nodetypes="cc"
       id="line3793"
       d="M 202.16097,542.76298 V 392.96099"
       style="fill:none;fill-opacity:0;stroke:#ff0000;stroke-width:3.77952743" />
    <path
       inkscape:connector-curvature="0"
       style="fill:none;fill-opacity:0;stroke:#ff0000;stroke-width:3.77952743"
       d="M 240.82764,542.76298 V 352.42766"
       id="path2425"
       sodipodi:nodetypes="cc" />
    <path
       inkscape:connector-curvature="0"
       style="fill:none;fill-opacity:0;stroke:#ff0000;stroke-width:3.77952743"
       d="M 279.4943,542.76298 V 392.96099"
       id="path2431"
       sodipodi:nodetypes="cc" />
    <path
       inkscape:connector-curvature="0"
       sodipodi:nodetypes="cc"
       id="path2445"
       d="M 318.16097,542.76298 V 431.36099"
       style="fill:none;fill-opacity:0;stroke:#ff0000;stroke-width:3.77952743" />
    <path
       inkscape:connector-curvature="0"
       sodipodi:nodetypes="cc"
       id="path2457"
       d="M 395.49434,542.76298 V 314.02766"
       style="fill:none;fill-opacity:0;stroke:#ff0000;stroke-width:3.77952743" />
    <path
       inkscape:connector-curvature="0"
       style="fill:none;fill-opacity:0;stroke:#ff0000;stroke-width:3.77952743"
       d="M 434.161,542.76298 V 275.62766"
       id="path2463"
       sodipodi:nodetypes="cc" />
    <path
       inkscape:connector-curvature="0"
       sodipodi:nodetypes="cc"
       id="path2505"
       d="M 356.82764,542.76298 V 392.96099"
       style="fill:none;fill-opacity:0;stroke:#ff0000;stroke-width:3.77952743" />
    <path
       inkscape:connector-curvature="0"
       sodipodi:nodetypes="cc"
       id="path2511"
       d="M 472.82767,542.76298 V 352.42766"
       style="fill:none;fill-opacity:0;stroke:#ff0000;stroke-width:3.77952743" />
    <path
       inkscape:connector-curvature="0"
       style="fill:none;fill-opacity:0;stroke:#ff0000;stroke-width:3.77952743"
       d="M 511.49434,542.76298 V 431.36099"
       id="path2517"
       sodipodi:nodetypes="cc" />
    <path
       inkscape:connector-curvature="0"
       sodipodi:nodetypes="cc"
       id="path2523"
       d="M 550.161,542.76298 V 431.36099"
       style="fill:none;fill-opacity:0;stroke:#ff0000;stroke-width:3.77952743" />
    <path
       inkscape:connector-curvature="0"
       style="fill:none;fill-opacity:0;stroke:#ff0000;stroke-width:3.77952743"
       d="M 588.82773,542.76298 V 392.96099"
       id="path2529"
       sodipodi:nodetypes="cc" />
    <path
       inkscape:connector-curvature="0"
       sodipodi:nodetypes="cc"
       id="path2535"
       d="M 627.4944,542.76298 V 392.96099"
       style="fill:none;fill-opacity:0;stroke:#ff0000;stroke-width:3.77952743" />
    <path
       inkscape:connector-curvature="0"
       style="fill:none;fill-opacity:0;stroke:#ff0000;stroke-width:3.77952743"
       d="M 666.16107,542.76298 V 431.36099"
       id="path2541"
       sodipodi:nodetypes="cc" />
    <text
       xml:space="preserve"
       style="font-style:normal;font-variant:normal;font-weight:normal;font-stretch:normal;font-size:12.80000019px;line-height:0%;font-family:Arial;-inkscape-font-specification:Arial;text-align:start;writing-mode:lr-tb;text-anchor:start;fill:#000000;fill-opacity:1;stroke:none;stroke-width:1.06666672px;stroke-linecap:butt;stroke-linejoin:miter;stroke-opacity:1"
       x="140.99655"
       y="513.25275"
       id="text2645"><tspan
         style="font-size:25.60000038px;line-height:1.25;stroke-width:1.06666672px"
         sodipodi:role="line"
         id="tspan2647"
         x="140.99655"
         y="513.25275">1</tspan></text>
    <text
       id="text2649"
       y="474.58606"
       x="137.64655"
       style="font-style:normal;font-variant:normal;font-weight:normal;font-stretch:normal;font-size:12.80000019px;line-height:0%;font-family:Arial;-inkscape-font-specification:Arial;text-align:start;writing-mode:lr-tb;text-anchor:start;fill:#000000;fill-opacity:1;stroke:none;stroke-width:1.06666672px;stroke-linecap:butt;stroke-linejoin:miter;stroke-opacity:1"
       xml:space="preserve"><tspan
         style="font-size:25.60000038px;line-height:1.25;stroke-width:1.06666672px"
         y="474.58606"
         x="137.64655"
         id="tspan2651"
         sodipodi:role="line">2</tspan></text>
    <text
       id="text2653"
       y="435.9194"
       x="137.45905"
       style="font-style:normal;font-variant:normal;font-weight:normal;font-stretch:normal;font-size:12.80000019px;line-height:0%;font-family:Arial;-inkscape-font-specification:Arial;text-align:start;writing-mode:lr-tb;text-anchor:start;fill:#000000;fill-opacity:1;stroke:none;stroke-width:1.06666672px;stroke-linecap:butt;stroke-linejoin:miter;stroke-opacity:1"
       xml:space="preserve"><tspan
         style="font-size:25.60000038px;line-height:1.25;stroke-width:1.06666672px"
         y="435.9194"
         x="137.45905"
         id="tspan2655"
         sodipodi:role="line">3</tspan></text>
    <text
       xml:space="preserve"
       style="font-style:normal;font-variant:normal;font-weight:normal;font-stretch:normal;font-size:12.80000019px;line-height:0%;font-family:Arial;-inkscape-font-specification:Arial;text-align:start;writing-mode:lr-tb;text-anchor:start;fill:#000000;fill-opacity:1;stroke:none;stroke-width:1.06666672px;stroke-linecap:butt;stroke-linejoin:miter;stroke-opacity:1"
       x="137.53404"
       y="397.25275"
       id="text2657"><tspan
         style="font-size:25.60000038px;line-height:1.25;stroke-width:1.06666672px"
         sodipodi:role="line"
         id="tspan2659"
         x="137.53404"
         y="397.25275">4</tspan></text>
    <text
       id="text2661"
       y="358.58606"
       x="137.32155"
       style="font-style:normal;font-variant:normal;font-weight:normal;font-stretch:normal;font-size:12.80000019px;line-height:0%;font-family:Arial;-inkscape-font-specification:Arial;text-align:start;writing-mode:lr-tb;text-anchor:start;fill:#000000;fill-opacity:1;stroke:none;stroke-width:1.06666672px;stroke-linecap:butt;stroke-linejoin:miter;stroke-opacity:1"
       xml:space="preserve"><tspan
         style="font-size:25.60000038px;line-height:1.25;stroke-width:1.06666672px"
         y="358.58606"
         x="137.32155"
         id="tspan2663"
         sodipodi:role="line">5</tspan></text>
    <text
       xml:space="preserve"
       style="font-style:normal;font-variant:normal;font-weight:normal;font-stretch:normal;font-size:12.80000019px;line-height:0%;font-family:Arial;-inkscape-font-specification:Arial;text-align:start;writing-mode:lr-tb;text-anchor:start;fill:#000000;fill-opacity:1;stroke:none;stroke-width:1.06666672px;stroke-linecap:butt;stroke-linejoin:miter;stroke-opacity:1"
       x="137.47154"
       y="319.9194"
       id="text2665"><tspan
         style="font-size:25.60000038px;line-height:1.25;stroke-width:1.06666672px"
         sodipodi:role="line"
         id="tspan2667"
         x="137.47154"
         y="319.9194">6</tspan></text>
    <text
       id="text2669"
       y="281.0965"
       x="137.45905"
       style="font-style:normal;font-variant:normal;font-weight:normal;font-stretch:normal;font-size:12.80000019px;line-height:0%;font-family:Arial;-inkscape-font-specification:Arial;text-align:start;writing-mode:lr-tb;text-anchor:start;fill:#000000;fill-opacity:1;stroke:none;stroke-width:1.06666672px;stroke-linecap:butt;stroke-linejoin:miter;stroke-opacity:1"
       xml:space="preserve"><tspan
         style="font-size:25.60000038px;line-height:1.25;stroke-width:1.06666672px"
         y="281.0965"
         x="137.45905"
         id="tspan2671"
         sodipodi:role="line">7</tspan></text>
    <text
       id="text2673"
       y="572.98608"
       x="137.52155"
       style="font-style:normal;font-variant:normal;font-weight:normal;font-stretch:normal;font-size:12.80000019px;line-height:0%;font-family:Arial;-inkscape-font-specification:Arial;text-align:start;writing-mode:lr-tb;text-anchor:start;fill:#000000;fill-opacity:1;stroke:none;stroke-width:1.06666672px;stroke-linecap:butt;stroke-linejoin:miter;stroke-opacity:1"
       xml:space="preserve"><tspan
         style="font-size:25.60000038px;line-height:1.25;stroke-width:1.06666672px"
         y="572.98608"
         x="137.52155"
         id="tspan2675"
         sodipodi:role="line">0</tspan></text>
    <text
       xml:space="preserve"
       style="font-style:normal;font-variant:normal;font-weight:normal;font-stretch:normal;font-size:12.80000019px;line-height:0%;font-family:Arial;-inkscape-font-specification:Arial;text-align:start;writing-mode:lr-tb;text-anchor:start;fill:#000000;fill-opacity:1;stroke:none;stroke-width:1.06666672px;stroke-linecap:butt;stroke-linejoin:miter;stroke-opacity:1"
       x="195.99847"
       y="573.29858"
       id="text2677"><tspan
         style="font-size:25.60000038px;line-height:1.25;stroke-width:1.06666672px"
         sodipodi:role="line"
         id="tspan2679"
         x="195.99847"
         y="573.29858">1</tspan></text>
    <text
       id="text2681"
       y="573.29858"
       x="234.00888"
       style="font-style:normal;font-variant:normal;font-weight:normal;font-stretch:normal;font-size:12.80000019px;line-height:0%;font-family:Arial;-inkscape-font-specification:Arial;text-align:start;writing-mode:lr-tb;text-anchor:start;fill:#000000;fill-opacity:1;stroke:none;stroke-width:1.06666672px;stroke-linecap:butt;stroke-linejoin:miter;stroke-opacity:1"
       xml:space="preserve"><tspan
         style="font-size:25.60000038px;line-height:1.25;stroke-width:1.06666672px"
         y="573.29858"
         x="234.00888"
         id="tspan2683"
         sodipodi:role="line">2</tspan></text>
    <text
       xml:space="preserve"
       style="font-style:normal;font-variant:normal;font-weight:normal;font-stretch:normal;font-size:12.80000019px;line-height:0%;font-family:Arial;-inkscape-font-specification:Arial;text-align:start;writing-mode:lr-tb;text-anchor:start;fill:#000000;fill-opacity:1;stroke:none;stroke-width:1.06666672px;stroke-linecap:butt;stroke-linejoin:miter;stroke-opacity:1"
       x="272.41931"
       y="572.97357"
       id="text2685"><tspan
         style="font-size:25.60000038px;line-height:1.25;stroke-width:1.06666672px"
         sodipodi:role="line"
         id="tspan2687"
         x="272.41931"
         y="572.97357">3</tspan></text>
    <text
       id="text2689"
       y="573.29858"
       x="311.49847"
       style="font-style:normal;font-variant:normal;font-weight:normal;font-stretch:normal;font-size:12.80000019px;line-height:0%;font-family:Arial;-inkscape-font-specification:Arial;text-align:start;writing-mode:lr-tb;text-anchor:start;fill:#000000;fill-opacity:1;stroke:none;stroke-width:1.06666672px;stroke-linecap:butt;stroke-linejoin:miter;stroke-opacity:1"
       xml:space="preserve"><tspan
         style="font-size:25.60000038px;line-height:1.25;stroke-width:1.06666672px"
         y="573.29858"
         x="311.49847"
         id="tspan2691"
         sodipodi:role="line">4</tspan></text>
    <text
       xml:space="preserve"
       style="font-style:normal;font-variant:normal;font-weight:normal;font-stretch:normal;font-size:12.80000019px;line-height:0%;font-family:Arial;-inkscape-font-specification:Arial;text-align:start;writing-mode:lr-tb;text-anchor:start;fill:#000000;fill-opacity:1;stroke:none;stroke-width:1.06666672px;stroke-linecap:butt;stroke-linejoin:miter;stroke-opacity:1"
       x="349.69012"
       y="572.98608"
       id="text2693"><tspan
         style="font-size:25.60000038px;line-height:1.25;stroke-width:1.06666672px"
         sodipodi:role="line"
         id="tspan2695"
         x="349.69012"
         y="572.98608">5</tspan></text>
    <text
       id="text2697"
       y="572.98608"
       x="388.48184"
       style="font-style:normal;font-variant:normal;font-weight:normal;font-stretch:normal;font-size:12.80000019px;line-height:0%;font-family:Arial;-inkscape-font-specification:Arial;text-align:start;writing-mode:lr-tb;text-anchor:start;fill:#000000;fill-opacity:1;stroke:none;stroke-width:1.06666672px;stroke-linecap:butt;stroke-linejoin:miter;stroke-opacity:1"
       xml:space="preserve"><tspan
         style="font-size:25.60000038px;line-height:1.25;stroke-width:1.06666672px"
         y="572.98608"
         x="388.48184"
         id="tspan2699"
         sodipodi:role="line">6</tspan></text>
    <text
       xml:space="preserve"
       style="font-style:normal;font-variant:normal;font-weight:normal;font-stretch:normal;font-size:12.80000019px;line-height:0%;font-family:Arial;-inkscape-font-specification:Arial;text-align:start;writing-mode:lr-tb;text-anchor:start;fill:#000000;fill-opacity:1;stroke:none;stroke-width:1.06666672px;stroke-linecap:butt;stroke-linejoin:miter;stroke-opacity:1"
       x="427.01724"
       y="573.29858"
       id="text2701"><tspan
         style="font-size:25.60000038px;line-height:1.25;stroke-width:1.06666672px"
         sodipodi:role="line"
         id="tspan2703"
         x="427.01724"
         y="573.29858">7</tspan></text>
    <text
       id="text2705"
       y="572.98608"
       x="465.75266"
       style="font-style:normal;font-variant:normal;font-weight:normal;font-stretch:normal;font-size:12.80000019px;line-height:0%;font-family:Arial;-inkscape-font-specification:Arial;text-align:start;writing-mode:lr-tb;text-anchor:start;fill:#000000;fill-opacity:1;stroke:none;stroke-width:1.06666672px;stroke-linecap:butt;stroke-linejoin:miter;stroke-opacity:1"
       xml:space="preserve"><tspan
         style="font-size:25.60000038px;line-height:1.25;stroke-width:1.06666672px"
         y="572.98608"
         x="465.75266"
         id="tspan2707"
         sodipodi:role="line">8</tspan></text>
    <text
       xml:space="preserve"
       style="font-style:normal;font-variant:normal;font-weight:normal;font-stretch:normal;font-size:12.80000019px;line-height:0%;font-family:Arial;-inkscape-font-specification:Arial;text-align:start;writing-mode:lr-tb;text-anchor:start;fill:#000000;fill-opacity:1;stroke:none;stroke-width:1.06666672px;stroke-linecap:butt;stroke-linejoin:miter;stroke-opacity:1"
       x="504.40683"
       y="572.98608"
       id="text2709"><tspan
         style="font-size:25.60000038px;line-height:1.25;stroke-width:1.06666672px"
         sodipodi:role="line"
         id="tspan2711"
         x="504.40683"
         y="572.98608">9</tspan></text>
    <text
       id="text2713"
       y="572.98608"
       x="535.13599"
       style="font-style:normal;font-variant:normal;font-weight:normal;font-stretch:normal;font-size:12.80000019px;line-height:0%;font-family:Arial;-inkscape-font-specification:Arial;text-align:start;writing-mode:lr-tb;text-anchor:start;fill:#000000;fill-opacity:1;stroke:none;stroke-width:1.06666672px;stroke-linecap:butt;stroke-linejoin:miter;stroke-opacity:1"
       xml:space="preserve"><tspan
         style="font-size:25.60000038px;line-height:1.25;stroke-width:1.06666672px"
         y="572.98608"
         x="535.13599"
         id="tspan2715"
         sodipodi:role="line">10</tspan></text>
    <text
       xml:space="preserve"
       style="font-style:normal;font-variant:normal;font-weight:normal;font-stretch:normal;font-size:12.80000019px;line-height:0%;font-family:Arial;-inkscape-font-specification:Arial;text-align:start;writing-mode:lr-tb;text-anchor:start;fill:#000000;fill-opacity:1;stroke:none;stroke-width:1.06666672px;stroke-linecap:butt;stroke-linejoin:miter;stroke-opacity:1"
       x="575.54022"
       y="573.29858"
       id="text2717"><tspan
         style="font-size:25.60000038px;line-height:1.25;stroke-width:1.06666672px"
         sodipodi:role="line"
         id="tspan2719"
         x="575.54022"
         y="573.29858">11</tspan></text>
    <text
       id="text2721"
       y="573.29858"
       x="612.53192"
       style="font-style:normal;font-variant:normal;font-weight:normal;font-stretch:normal;font-size:12.80000019px;line-height:0%;font-family:Arial;-inkscape-font-specification:Arial;text-align:start;writing-mode:lr-tb;text-anchor:start;fill:#000000;fill-opacity:1;stroke:none;stroke-width:1.06666672px;stroke-linecap:butt;stroke-linejoin:miter;stroke-opacity:1"
       xml:space="preserve"><tspan
         style="font-size:25.60000038px;line-height:1.25;stroke-width:1.06666672px"
         y="573.29858"
         x="612.53192"
         id="tspan2723"
         sodipodi:role="line">12</tspan></text>
    <text
       xml:space="preserve"
       style="font-style:normal;font-variant:normal;font-weight:normal;font-stretch:normal;font-size:12.80000019px;line-height:0%;font-family:Arial;-inkscape-font-specification:Arial;text-align:start;writing-mode:lr-tb;text-anchor:start;fill:#000000;fill-opacity:1;stroke:none;stroke-width:1.06666672px;stroke-linecap:butt;stroke-linejoin:miter;stroke-opacity:1"
       x="651.1048"
       y="572.97357"
       id="text2725"><tspan
         style="font-size:25.60000038px;line-height:1.25;stroke-width:1.06666672px"
         sodipodi:role="line"
         id="tspan2727"
         x="651.1048"
         y="572.97357">13</tspan></text>
    <circle
       r="6.9420767"
       cy="388.05273"
       cx="202.16096"
       style="display:inline;overflow:visible;visibility:visible;opacity:1;fill:#ff0000;fill-opacity:1;fill-rule:evenodd;stroke:#ff0000;stroke-width:1.06666672;stroke-linecap:round;stroke-linejoin:miter;stroke-miterlimit:4;stroke-dasharray:none;stroke-dashoffset:0;stroke-opacity:1;marker:none;marker-start:none;marker-mid:none;marker-end:none;enable-background:accumulate"
       id="path2739" />
    <circle
       r="6.9420767"
       cy="349.38608"
       cx="240.82764"
       id="path2741"
       style="display:inline;overflow:visible;visibility:visible;opacity:1;fill:#ff0000;fill-opacity:1;fill-rule:evenodd;stroke:#ff0000;stroke-width:1.06666672;stroke-linecap:round;stroke-linejoin:miter;stroke-miterlimit:4;stroke-dasharray:none;stroke-dashoffset:0;stroke-opacity:1;marker:none;marker-start:none;marker-mid:none;marker-end:none;enable-background:accumulate" />
    <circle
       r="6.9420767"
       cy="388.05273"
       cx="279.49429"
       style="display:inline;overflow:visible;visibility:visible;opacity:1;fill:#ff0000;fill-opacity:1;fill-rule:evenodd;stroke:#ff0000;stroke-width:1.06666672;stroke-linecap:round;stroke-linejoin:miter;stroke-miterlimit:4;stroke-dasharray:none;stroke-dashoffset:0;stroke-opacity:1;marker:none;marker-start:none;marker-mid:none;marker-end:none;enable-background:accumulate"
       id="path2767" />
    <circle
       r="6.9420767"
       cy="426.71942"
       cx="318.16098"
       id="path2769"
       style="display:inline;overflow:visible;visibility:visible;opacity:1;fill:#ff0000;fill-opacity:1;fill-rule:evenodd;stroke:#ff0000;stroke-width:1.06666672;stroke-linecap:round;stroke-linejoin:miter;stroke-miterlimit:4;stroke-dasharray:none;stroke-dashoffset:0;stroke-opacity:1;marker:none;marker-start:none;marker-mid:none;marker-end:none;enable-background:accumulate" />
    <circle
       r="6.9420767"
       cy="388.05273"
       cx="356.82764"
       style="display:inline;overflow:visible;visibility:visible;opacity:1;fill:#ff0000;fill-opacity:1;fill-rule:evenodd;stroke:#ff0000;stroke-width:1.06666672;stroke-linecap:round;stroke-linejoin:miter;stroke-miterlimit:4;stroke-dasharray:none;stroke-dashoffset:0;stroke-opacity:1;marker:none;marker-start:none;marker-mid:none;marker-end:none;enable-background:accumulate"
       id="path2771" />
    <circle
       r="6.9420767"
       cy="310.71942"
       cx="395.49432"
       id="path2773"
       style="display:inline;overflow:visible;visibility:visible;opacity:1;fill:#ff0000;fill-opacity:1;fill-rule:evenodd;stroke:#ff0000;stroke-width:1.06666672;stroke-linecap:round;stroke-linejoin:miter;stroke-miterlimit:4;stroke-dasharray:none;stroke-dashoffset:0;stroke-opacity:1;marker:none;marker-start:none;marker-mid:none;marker-end:none;enable-background:accumulate" />
    <circle
       r="6.9420767"
       cy="270.42456"
       cx="434.16101"
       style="display:inline;overflow:visible;visibility:visible;opacity:1;fill:#ff0000;fill-opacity:1;fill-rule:evenodd;stroke:#ff0000;stroke-width:1.06666672;stroke-linecap:round;stroke-linejoin:miter;stroke-miterlimit:4;stroke-dasharray:none;stroke-dashoffset:0;stroke-opacity:1;marker:none;marker-start:none;marker-mid:none;marker-end:none;enable-background:accumulate"
       id="path2775" />
    <circle
       r="6.9420767"
       cy="349.38608"
       cx="472.82767"
       id="path2777"
       style="display:inline;overflow:visible;visibility:visible;opacity:1;fill:#ff0000;fill-opacity:1;fill-rule:evenodd;stroke:#ff0000;stroke-width:1.06666672;stroke-linecap:round;stroke-linejoin:miter;stroke-miterlimit:4;stroke-dasharray:none;stroke-dashoffset:0;stroke-opacity:1;marker:none;marker-start:none;marker-mid:none;marker-end:none;enable-background:accumulate" />
    <circle
       r="6.9420767"
       cy="426.71942"
       cx="511.49432"
       style="display:inline;overflow:visible;visibility:visible;opacity:1;fill:#ff0000;fill-opacity:1;fill-rule:evenodd;stroke:#ff0000;stroke-width:1.06666672;stroke-linecap:round;stroke-linejoin:miter;stroke-miterlimit:4;stroke-dasharray:none;stroke-dashoffset:0;stroke-opacity:1;marker:none;marker-start:none;marker-mid:none;marker-end:none;enable-background:accumulate"
       id="path2779" />
    <circle
       r="6.9420767"
       cy="426.71942"
       cx="550.16101"
       id="path2781"
       style="display:inline;overflow:visible;visibility:visible;opacity:1;fill:#ff0000;fill-opacity:1;fill-rule:evenodd;stroke:#ff0000;stroke-width:1.06666672;stroke-linecap:round;stroke-linejoin:miter;stroke-miterlimit:4;stroke-dasharray:none;stroke-dashoffset:0;stroke-opacity:1;marker:none;marker-start:none;marker-mid:none;marker-end:none;enable-background:accumulate" />
    <circle
       r="6.9420767"
       cy="388.05273"
       cx="588.82776"
       style="display:inline;overflow:visible;visibility:visible;opacity:1;fill:#ff0000;fill-opacity:1;fill-rule:evenodd;stroke:#ff0000;stroke-width:1.06666672;stroke-linecap:round;stroke-linejoin:miter;stroke-miterlimit:4;stroke-dasharray:none;stroke-dashoffset:0;stroke-opacity:1;marker:none;marker-start:none;marker-mid:none;marker-end:none;enable-background:accumulate"
       id="path2783" />
    <circle
       r="6.9420767"
       cy="388.05273"
       cx="627.49438"
       id="path2785"
       style="display:inline;overflow:visible;visibility:visible;opacity:1;fill:#ff0000;fill-opacity:1;fill-rule:evenodd;stroke:#ff0000;stroke-width:1.06666672;stroke-linecap:round;stroke-linejoin:miter;stroke-miterlimit:4;stroke-dasharray:none;stroke-dashoffset:0;stroke-opacity:1;marker:none;marker-start:none;marker-mid:none;marker-end:none;enable-background:accumulate" />
    <circle
       r="6.9420767"
       cy="426.71942"
       cx="666.16107"
       style="display:inline;overflow:visible;visibility:visible;opacity:1;fill:#ff0000;fill-opacity:1;fill-rule:evenodd;stroke:#ff0000;stroke-width:1.06666672;stroke-linecap:round;stroke-linejoin:miter;stroke-miterlimit:4;stroke-dasharray:none;stroke-dashoffset:0;stroke-opacity:1;marker:none;marker-start:none;marker-mid:none;marker-end:none;enable-background:accumulate"
       id="path2787" />
  </g>
</svg>
