<?xml version="1.0" encoding="UTF-8" standalone="no"?>
<svg
   xmlns:dc="http://purl.org/dc/elements/1.1/"
   xmlns:cc="http://creativecommons.org/ns#"
   xmlns:rdf="http://www.w3.org/1999/02/22-rdf-syntax-ns#"
   xmlns:svg="http://www.w3.org/2000/svg"
   xmlns="http://www.w3.org/2000/svg"
   xmlns:xlink="http://www.w3.org/1999/xlink"
   xmlns:sodipodi="http://sodipodi.sourceforge.net/DTD/sodipodi-0.dtd"
   xmlns:inkscape="http://www.inkscape.org/namespaces/inkscape"
   version="1.1"
   viewBox="0 0 294.29033 305.4977"
   id="svg23"
   sodipodi:docname="see-star-letters-2.svg"
   width="294.29034"
   height="305.49771"
   inkscape:version="0.92.4 (5da689c313, 2019-01-14)">
  <metadata
     id="metadata27">
    <rdf:RDF>
      <cc:Work
         rdf:about="">
        <dc:format>image/svg+xml</dc:format>
        <dc:type
           rdf:resource="http://purl.org/dc/dcmitype/StillImage" />
        <dc:title></dc:title>
      </cc:Work>
    </rdf:RDF>
  </metadata>
  <sodipodi:namedview
     pagecolor="#ffffff"
     bordercolor="#666666"
     borderopacity="1"
     objecttolerance="10"
     gridtolerance="10"
     guidetolerance="10"
     inkscape:pageopacity="0"
     inkscape:pageshadow="2"
     inkscape:window-width="640"
     inkscape:window-height="480"
     id="namedview25"
     showgrid="false"
     fit-margin-top="0"
     fit-margin-left="0"
     fit-margin-right="0"
     fit-margin-bottom="0"
     inkscape:zoom="2.1132649"
     inkscape:cx="3.657675"
     inkscape:cy="168.19789"
     inkscape:current-layer="svg23" />
  <defs
     id="defs7">
    <linearGradient
       id="a"
       x1="322.56"
       x2="294.60999"
       y1="532.06"
       y2="514.96002"
       gradientUnits="userSpaceOnUse">
      <stop
         stop-color="#e5dcdd"
         offset="0"
         id="stop2" />
      <stop
         stop-color="#fff"
         offset="1"
         id="stop4" />
    </linearGradient>
    <linearGradient
       inkscape:collect="always"
       xlink:href="#a"
       id="linearGradient837"
       gradientUnits="userSpaceOnUse"
       x1="322.56"
       y1="532.06"
       x2="294.60999"
       y2="514.96002"
       gradientTransform="matrix(0.96557,0,0.22626,1.102,-287.1719,-457.9843)" />
    <linearGradient
       inkscape:collect="always"
       xlink:href="#a"
       id="linearGradient839"
       gradientUnits="userSpaceOnUse"
       x1="322.56"
       y1="532.06"
       x2="294.60999"
       y2="514.96002"
       gradientTransform="matrix(0.96557,0,0.22626,1.102,-253.9219,-465.5643)" />
  </defs>
  <path
     d="m 107.5381,301.6557 c -3.2361,-1.3655 -6.2469,-5.7942 -8.1344,-11.965 -1.4905,-4.8732 -1.7133,-10.737 -1.7321,-45.592 -0.0195,-36.052 -0.19288,-40.313 -1.7566,-43.171 -3.2457,-5.9326 -10.002,-9.3806 -42.765,-21.826 -38.593,-14.66 -49.9999999,-21.905 -49.9999999,-31.756 0,-3.15 3.7859,-8.1012 8.4515999,-11.053 6.2693,-3.9663 19.969,-8.9158 42.048,-15.192 24.851,-7.0639 38.993,-12.234 42.558,-15.56 1.508,-1.4067 3.2629,-4.3317 3.8999,-6.500001 0.6571,-2.2368 1.5481,-17.137 2.0595,-34.442 1.0245,-34.667 1.5178,-41.284 3.6517,-48.978 1.9848,-7.1565004 4.544,-10.6070004 8.9436,-12.0590004 5.5476,-1.8309 13.033,2.4402 21.125,12.0540004 5.9321,7.0478 9.3549,11.788 28.837,39.933 4.359,6.2975 10.856,14.51 14.438,18.25 7.42,7.7476 8.0446,7.9034 21.419,5.3446 5.8069,-1.1111 40.862,-10.924 50.456,-14.124 0.76315,-0.25456 5.4671,-1.3532 10.453,-2.4414 19.804,-4.3222 29.675,-1.1612 29.65,9.4939 -0.017,7.0089 -7.2587,19.716 -21.142,37.097001 -12.66,15.849 -25.483,33.408 -27.83,38.107 -1.3206,2.6443 -2.3593,6.2858 -2.308,8.0922 0.14694,5.1841 5.868,15.991 21.297,40.23 21.88,34.373 26.763,46.283 22.051,53.775 -2.7426,4.3607 -6.147,5.5124 -14.559,4.925 -8.7211,-0.609 -18.914,-3.6179 -45.301,-13.373 -22.215,-8.2127 -32.599,-11.283 -38.255,-11.31 -6.5569,-0.0316 -12.975,6.4439 -34.175,34.483 -23.946,31.67 -34.887,41.142 -43.381,37.558 z"
     id="path9"
     inkscape:connector-curvature="0"
     style="fill:#ffbb16;stroke:#eca700;stroke-width:6.30000019" />
  <path
     d="m 143.98984,117.59152 a 26.377515,14.320243 73.364837 1 1 -29.50492,0 26.377515,14.320243 73.364837 1 1 29.50492,0 z"
     id="path11"
     inkscape:connector-curvature="0"
     style="fill:#ffffff;stroke-width:1.03153193" />
  <path
     d="m 144.24984,117.71152 a 26.377515,14.320243 73.364837 1 1 -29.50492,0 26.377515,14.320243 73.364837 1 1 29.50492,0 z"
     id="path13"
     inkscape:connector-curvature="0"
     style="fill:url(#linearGradient837);stroke:#aaaaaa;stroke-width:1.03153193" />
  <path
     d="m 126.53902,114.0657 a 12.112718,6.2397841 80.701539 1 1 -12.6008,0 12.112718,6.2397841 80.701539 1 1 12.6008,0 z"
     id="path15"
     inkscape:connector-curvature="0"
     style="stroke:#000000;stroke-width:0.09749" />
  <path
     d="m 177.24984,110.01152 a 26.377515,14.320243 73.364837 1 1 -29.50492,0 26.377515,14.320243 73.364837 1 1 29.50492,0 z"
     id="path17"
     inkscape:connector-curvature="0"
     style="fill:#ffffff;stroke-width:1.03153193" />
  <path
     d="m 177.49984,110.13152 a 26.377515,14.320243 73.364837 1 1 -29.50492,0 26.377515,14.320243 73.364837 1 1 29.50492,0 z"
     id="path19"
     inkscape:connector-curvature="0"
     style="fill:url(#linearGradient839);stroke:#aaaaaa;stroke-width:1.03153193" />
  <path
     d="m 159.79902,106.4857 a 12.112718,6.2397841 80.701539 1 1 -12.6008,0 12.112718,6.2397841 80.701539 1 1 12.6008,0 z"
     id="path21"
     inkscape:connector-curvature="0"
     style="stroke:#000000;stroke-width:0.09749" />
  <text
     xml:space="preserve"
     style="font-style:normal;font-weight:normal;font-size:40px;line-height:1.25;font-family:sans-serif;letter-spacing:0px;word-spacing:0px;fill:#000000;fill-opacity:1;stroke:none"
     x="110.25594"
     y="47.602924"
     id="text825"><tspan
       sodipodi:role="line"
       id="tspan823"
       x="110.25594"
       y="47.602924">A</tspan></text>
  <text
     xml:space="preserve"
     style="font-style:normal;font-weight:normal;font-size:40px;line-height:1.25;font-family:sans-serif;letter-spacing:0px;word-spacing:0px;fill:#000000;fill-opacity:1;stroke:none"
     x="233.28831"
     y="111.95832"
     id="text829"><tspan
       sodipodi:role="line"
       id="tspan827"
       x="233.28831"
       y="111.95832">C</tspan></text>
  <text
     xml:space="preserve"
     style="font-style:normal;font-weight:normal;font-size:40px;line-height:1.25;font-family:sans-serif;letter-spacing:0px;word-spacing:0px;fill:#000000;fill-opacity:1;stroke:none"
     x="244.64514"
     y="237.3567"
     id="text833"><tspan
       sodipodi:role="line"
       id="tspan831"
       x="244.64514"
       y="237.3567">I</tspan></text>
  <text
     xml:space="preserve"
     style="font-style:normal;font-weight:normal;font-size:40px;line-height:1.25;font-family:sans-serif;letter-spacing:0px;word-spacing:0px;fill:#000000;fill-opacity:1;stroke:none"
     x="107.41673"
     y="265.74881"
     id="text837"><tspan
       sodipodi:role="line"
       id="tspan835"
       x="107.41673"
       y="265.74881">N</tspan></text>
  <text
     xml:space="preserve"
     style="font-style:normal;font-weight:normal;font-size:40px;line-height:1.25;font-family:sans-serif;letter-spacing:0px;word-spacing:0px;fill:#000000;fill-opacity:1;stroke:none"
     x="37.856117"
     y="163.06407"
     id="text841"><tspan
       sodipodi:role="line"
       id="tspan839"
       x="37.856117"
       y="163.06407">T</tspan></text>
  <text
     xml:space="preserve"
     style="font-style:normal;font-weight:normal;font-size:40px;line-height:1.25;font-family:sans-serif;letter-spacing:0px;word-spacing:0px;fill:#000000;fill-opacity:1;stroke:none"
     x="182.65576"
     y="60.852566"
     id="text835"><tspan
       sodipodi:role="line"
       id="tspan833"
       x="182.65576"
       y="60.852566">E</tspan></text>
  <text
     xml:space="preserve"
     style="font-style:normal;font-weight:normal;font-size:40px;line-height:1.25;font-family:sans-serif;letter-spacing:0px;word-spacing:0px;fill:#000000;fill-opacity:1;stroke:none"
     x="184.54857"
     y="276.63242"
     id="text839"><tspan
       sodipodi:role="line"
       id="tspan837"
       x="184.54857"
       y="276.63242">J</tspan></text>
  <text
     xml:space="preserve"
     style="font-style:normal;font-weight:normal;font-size:40px;line-height:1.25;font-family:sans-serif;letter-spacing:0px;word-spacing:0px;fill:#000000;fill-opacity:1;stroke:none"
     x="255.52878"
     y="172.52811"
     id="text843"><tspan
       sodipodi:role="line"
       id="tspan841"
       x="255.52878"
       y="172.52811">H</tspan></text>
  <text
     xml:space="preserve"
     style="font-style:normal;font-weight:normal;font-size:40px;line-height:1.25;font-family:sans-serif;letter-spacing:0px;word-spacing:0px;fill:#000000;fill-opacity:1;stroke:none"
     x="40.695324"
     y="231.20509"
     id="text847"><tspan
       sodipodi:role="line"
       id="tspan845"
       x="40.695324"
       y="231.20509">M</tspan></text>
  <text
     xml:space="preserve"
     style="font-style:normal;font-weight:normal;font-size:40px;line-height:1.25;font-family:sans-serif;letter-spacing:0px;word-spacing:0px;fill:#000000;fill-opacity:1;stroke:none"
     x="56.78418"
     y="94.449844"
     id="text851"><tspan
       sodipodi:role="line"
       id="tspan849"
       x="56.78418"
       y="94.449844">R</tspan></text>
</svg>
